<?xml version="1.0" encoding="utf-8"?>
<!DOCTYPE eagle SYSTEM "eagle.dtd">
<eagle version="9.1.0">
<drawing>
<settings>
<setting alwaysvectorfont="no"/>
<setting verticaltext="up"/>
</settings>
<grid distance="0.1" unitdist="inch" unit="inch" style="lines" multiple="1" display="no" altdistance="0.01" altunitdist="inch" altunit="inch"/>
<layers>
<layer number="1" name="Top" color="4" fill="1" visible="no" active="no"/>
<layer number="2" name="Route2" color="1" fill="3" visible="no" active="no"/>
<layer number="3" name="Route3" color="4" fill="3" visible="no" active="no"/>
<layer number="4" name="Route4" color="1" fill="4" visible="no" active="no"/>
<layer number="5" name="Route5" color="4" fill="4" visible="no" active="no"/>
<layer number="6" name="Route6" color="1" fill="8" visible="no" active="no"/>
<layer number="7" name="Route7" color="4" fill="8" visible="no" active="no"/>
<layer number="8" name="Route8" color="1" fill="2" visible="no" active="no"/>
<layer number="9" name="Route9" color="4" fill="2" visible="no" active="no"/>
<layer number="10" name="Route10" color="1" fill="7" visible="no" active="no"/>
<layer number="11" name="Route11" color="4" fill="7" visible="no" active="no"/>
<layer number="12" name="Route12" color="1" fill="5" visible="no" active="no"/>
<layer number="13" name="Route13" color="4" fill="5" visible="no" active="no"/>
<layer number="14" name="Route14" color="1" fill="6" visible="no" active="no"/>
<layer number="15" name="Route15" color="4" fill="6" visible="no" active="no"/>
<layer number="16" name="Bottom" color="1" fill="1" visible="no" active="no"/>
<layer number="17" name="Pads" color="2" fill="1" visible="no" active="no"/>
<layer number="18" name="Vias" color="2" fill="1" visible="no" active="no"/>
<layer number="19" name="Unrouted" color="6" fill="1" visible="no" active="no"/>
<layer number="20" name="Dimension" color="24" fill="1" visible="no" active="no"/>
<layer number="21" name="tPlace" color="7" fill="1" visible="no" active="no"/>
<layer number="22" name="bPlace" color="7" fill="1" visible="no" active="no"/>
<layer number="23" name="tOrigins" color="15" fill="1" visible="no" active="no"/>
<layer number="24" name="bOrigins" color="15" fill="1" visible="no" active="no"/>
<layer number="25" name="tNames" color="7" fill="1" visible="no" active="no"/>
<layer number="26" name="bNames" color="7" fill="1" visible="no" active="no"/>
<layer number="27" name="tValues" color="7" fill="1" visible="no" active="no"/>
<layer number="28" name="bValues" color="7" fill="1" visible="no" active="no"/>
<layer number="29" name="tStop" color="7" fill="3" visible="no" active="no"/>
<layer number="30" name="bStop" color="7" fill="6" visible="no" active="no"/>
<layer number="31" name="tCream" color="7" fill="4" visible="no" active="no"/>
<layer number="32" name="bCream" color="7" fill="5" visible="no" active="no"/>
<layer number="33" name="tFinish" color="6" fill="3" visible="no" active="no"/>
<layer number="34" name="bFinish" color="6" fill="6" visible="no" active="no"/>
<layer number="35" name="tGlue" color="7" fill="4" visible="no" active="no"/>
<layer number="36" name="bGlue" color="7" fill="5" visible="no" active="no"/>
<layer number="37" name="tTest" color="7" fill="1" visible="no" active="no"/>
<layer number="38" name="bTest" color="7" fill="1" visible="no" active="no"/>
<layer number="39" name="tKeepout" color="4" fill="11" visible="no" active="no"/>
<layer number="40" name="bKeepout" color="1" fill="11" visible="no" active="no"/>
<layer number="41" name="tRestrict" color="4" fill="10" visible="no" active="no"/>
<layer number="42" name="bRestrict" color="1" fill="10" visible="no" active="no"/>
<layer number="43" name="vRestrict" color="2" fill="10" visible="no" active="no"/>
<layer number="44" name="Drills" color="7" fill="1" visible="no" active="no"/>
<layer number="45" name="Holes" color="7" fill="1" visible="no" active="no"/>
<layer number="46" name="Milling" color="3" fill="1" visible="no" active="no"/>
<layer number="47" name="Measures" color="7" fill="1" visible="no" active="no"/>
<layer number="48" name="Document" color="7" fill="1" visible="no" active="no"/>
<layer number="49" name="Reference" color="7" fill="1" visible="no" active="no"/>
<layer number="50" name="dxf" color="7" fill="1" visible="no" active="no"/>
<layer number="51" name="tDocu" color="7" fill="1" visible="no" active="no"/>
<layer number="52" name="bDocu" color="7" fill="1" visible="no" active="no"/>
<layer number="53" name="tGND_GNDA" color="7" fill="9" visible="no" active="no"/>
<layer number="54" name="bGND_GNDA" color="1" fill="9" visible="no" active="no"/>
<layer number="56" name="wert" color="7" fill="1" visible="no" active="no"/>
<layer number="57" name="tCAD" color="7" fill="1" visible="no" active="no"/>
<layer number="59" name="tCarbon" color="7" fill="1" visible="no" active="no"/>
<layer number="60" name="bCarbon" color="7" fill="1" visible="no" active="no"/>
<layer number="88" name="SimResults" color="9" fill="1" visible="yes" active="yes"/>
<layer number="89" name="SimProbes" color="9" fill="1" visible="yes" active="yes"/>
<layer number="90" name="Modules" color="5" fill="1" visible="yes" active="yes"/>
<layer number="91" name="Nets" color="2" fill="1" visible="yes" active="yes"/>
<layer number="92" name="Busses" color="1" fill="1" visible="yes" active="yes"/>
<layer number="93" name="Pins" color="2" fill="1" visible="no" active="yes"/>
<layer number="94" name="Symbols" color="4" fill="1" visible="yes" active="yes"/>
<layer number="95" name="Names" color="7" fill="1" visible="yes" active="yes"/>
<layer number="96" name="Values" color="7" fill="1" visible="yes" active="yes"/>
<layer number="97" name="Info" color="7" fill="1" visible="yes" active="yes"/>
<layer number="98" name="Guide" color="6" fill="1" visible="yes" active="yes"/>
<layer number="99" name="SpiceOrder" color="7" fill="1" visible="yes" active="yes"/>
<layer number="100" name="Muster" color="7" fill="1" visible="no" active="no"/>
<layer number="101" name="Patch_Top" color="12" fill="4" visible="yes" active="yes"/>
<layer number="102" name="Vscore" color="7" fill="1" visible="yes" active="yes"/>
<layer number="103" name="tMap" color="7" fill="1" visible="yes" active="yes"/>
<layer number="104" name="Name" color="16" fill="1" visible="yes" active="yes"/>
<layer number="105" name="tPlate" color="7" fill="1" visible="yes" active="yes"/>
<layer number="106" name="bPlate" color="7" fill="1" visible="yes" active="yes"/>
<layer number="107" name="Crop" color="7" fill="1" visible="yes" active="yes"/>
<layer number="108" name="tplace-old" color="10" fill="1" visible="yes" active="yes"/>
<layer number="109" name="ref-old" color="11" fill="1" visible="yes" active="yes"/>
<layer number="110" name="fp0" color="7" fill="1" visible="yes" active="yes"/>
<layer number="111" name="LPC17xx" color="7" fill="1" visible="yes" active="yes"/>
<layer number="112" name="tSilk" color="7" fill="1" visible="yes" active="yes"/>
<layer number="113" name="IDFDebug" color="7" fill="1" visible="yes" active="yes"/>
<layer number="114" name="Badge_Outline" color="7" fill="1" visible="yes" active="yes"/>
<layer number="115" name="ReferenceISLANDS" color="7" fill="1" visible="yes" active="yes"/>
<layer number="116" name="Patch_BOT" color="9" fill="4" visible="yes" active="yes"/>
<layer number="118" name="Rect_Pads" color="7" fill="1" visible="yes" active="yes"/>
<layer number="121" name="_tsilk" color="7" fill="1" visible="yes" active="yes"/>
<layer number="122" name="_bsilk" color="7" fill="1" visible="yes" active="yes"/>
<layer number="123" name="tTestmark" color="7" fill="1" visible="yes" active="yes"/>
<layer number="124" name="bTestmark" color="7" fill="1" visible="yes" active="yes"/>
<layer number="125" name="_tNames" color="7" fill="1" visible="yes" active="yes"/>
<layer number="126" name="_bNames" color="7" fill="1" visible="yes" active="yes"/>
<layer number="127" name="_tValues" color="7" fill="1" visible="yes" active="yes"/>
<layer number="128" name="_bValues" color="7" fill="1" visible="yes" active="yes"/>
<layer number="129" name="Mask" color="7" fill="1" visible="yes" active="yes"/>
<layer number="131" name="tAdjust" color="7" fill="1" visible="yes" active="yes"/>
<layer number="132" name="bAdjust" color="7" fill="1" visible="yes" active="yes"/>
<layer number="144" name="Drill_legend" color="7" fill="1" visible="yes" active="yes"/>
<layer number="150" name="Notes" color="7" fill="1" visible="yes" active="yes"/>
<layer number="151" name="HeatSink" color="7" fill="1" visible="yes" active="yes"/>
<layer number="152" name="_bDocu" color="7" fill="1" visible="yes" active="yes"/>
<layer number="153" name="FabDoc1" color="7" fill="1" visible="yes" active="yes"/>
<layer number="154" name="FabDoc2" color="7" fill="1" visible="yes" active="yes"/>
<layer number="155" name="FabDoc3" color="7" fill="1" visible="yes" active="yes"/>
<layer number="199" name="Contour" color="7" fill="1" visible="yes" active="yes"/>
<layer number="200" name="200bmp" color="1" fill="10" visible="yes" active="yes"/>
<layer number="201" name="201bmp" color="2" fill="10" visible="yes" active="yes"/>
<layer number="202" name="202bmp" color="3" fill="10" visible="yes" active="yes"/>
<layer number="203" name="203bmp" color="4" fill="10" visible="yes" active="yes"/>
<layer number="204" name="204bmp" color="5" fill="10" visible="yes" active="yes"/>
<layer number="205" name="205bmp" color="6" fill="10" visible="yes" active="yes"/>
<layer number="206" name="206bmp" color="7" fill="10" visible="yes" active="yes"/>
<layer number="207" name="207bmp" color="8" fill="10" visible="yes" active="yes"/>
<layer number="208" name="208bmp" color="9" fill="10" visible="yes" active="yes"/>
<layer number="209" name="209bmp" color="7" fill="1" visible="yes" active="yes"/>
<layer number="210" name="210bmp" color="7" fill="1" visible="yes" active="yes"/>
<layer number="211" name="211bmp" color="7" fill="1" visible="yes" active="yes"/>
<layer number="212" name="212bmp" color="7" fill="1" visible="yes" active="yes"/>
<layer number="213" name="213bmp" color="7" fill="1" visible="yes" active="yes"/>
<layer number="214" name="214bmp" color="7" fill="1" visible="yes" active="yes"/>
<layer number="215" name="215bmp" color="7" fill="1" visible="yes" active="yes"/>
<layer number="216" name="216bmp" color="7" fill="1" visible="yes" active="yes"/>
<layer number="217" name="217bmp" color="18" fill="1" visible="no" active="no"/>
<layer number="218" name="218bmp" color="19" fill="1" visible="no" active="no"/>
<layer number="219" name="219bmp" color="20" fill="1" visible="no" active="no"/>
<layer number="220" name="220bmp" color="21" fill="1" visible="no" active="no"/>
<layer number="221" name="221bmp" color="22" fill="1" visible="no" active="no"/>
<layer number="222" name="222bmp" color="23" fill="1" visible="no" active="no"/>
<layer number="223" name="223bmp" color="24" fill="1" visible="no" active="no"/>
<layer number="224" name="224bmp" color="25" fill="1" visible="no" active="no"/>
<layer number="225" name="225bmp" color="7" fill="1" visible="yes" active="yes"/>
<layer number="226" name="226bmp" color="7" fill="1" visible="yes" active="yes"/>
<layer number="227" name="227bmp" color="7" fill="1" visible="yes" active="yes"/>
<layer number="228" name="228bmp" color="7" fill="1" visible="yes" active="yes"/>
<layer number="229" name="229bmp" color="7" fill="1" visible="yes" active="yes"/>
<layer number="230" name="230bmp" color="7" fill="1" visible="yes" active="yes"/>
<layer number="231" name="231bmp" color="7" fill="1" visible="yes" active="yes"/>
<layer number="232" name="Eagle3D_PG2" color="7" fill="1" visible="yes" active="yes"/>
<layer number="233" name="Eagle3D_PG3" color="7" fill="1" visible="yes" active="yes"/>
<layer number="248" name="Housing" color="7" fill="1" visible="yes" active="yes"/>
<layer number="249" name="Edge" color="7" fill="1" visible="yes" active="yes"/>
<layer number="250" name="Descript" color="3" fill="1" visible="no" active="no"/>
<layer number="251" name="SMDround" color="12" fill="11" visible="no" active="no"/>
<layer number="254" name="cooling" color="7" fill="1" visible="yes" active="yes"/>
<layer number="255" name="routoute" color="7" fill="1" visible="yes" active="yes"/>
</layers>
<schematic xreflabel="%F%N/%S.%C%R" xrefpart="/%S.%C%R">
<libraries>
<library name="SparkFun-Connectors" urn="urn:adsk.eagle:library:513">
<description>&lt;h3&gt;SparkFun Connectors&lt;/h3&gt;
This library contains electrically-functional connectors. 
&lt;br&gt;
&lt;br&gt;
We've spent an enormous amount of time creating and checking these footprints and parts, but it is &lt;b&gt; the end user's responsibility&lt;/b&gt; to ensure correctness and suitablity for a given componet or application. 
&lt;br&gt;
&lt;br&gt;If you enjoy using this library, please buy one of our products at &lt;a href=" www.sparkfun.com"&gt;SparkFun.com&lt;/a&gt;.
&lt;br&gt;
&lt;br&gt;
&lt;b&gt;Licensing:&lt;/b&gt; Creative Commons ShareAlike 4.0 International - https://creativecommons.org/licenses/by-sa/4.0/ 
&lt;br&gt;
&lt;br&gt;
You are welcome to use this library for commercial purposes. For attribution, we ask that when you begin to sell your device using our footprint, you email us with a link to the product being sold. We want bragging rights that we helped (in a very small part) to create your 8th world wonder. We would like the opportunity to feature your device on our homepage.</description>
<packages>
<package name="1X08" urn="urn:adsk.eagle:footprint:37760/1" library_version="1">
<description>&lt;h3&gt;Plated Through Hole -8 Pin&lt;/h3&gt;
&lt;p&gt;Specifications:
&lt;ul&gt;&lt;li&gt;Pin count:8&lt;/li&gt;
&lt;li&gt;Pin pitch:0.1"&lt;/li&gt;
&lt;/ul&gt;&lt;/p&gt;
&lt;p&gt;Example device(s):
&lt;ul&gt;&lt;li&gt;CONN_08&lt;/li&gt;
&lt;/ul&gt;&lt;/p&gt;</description>
<wire x1="14.605" y1="1.27" x2="15.875" y2="1.27" width="0.2032" layer="21"/>
<wire x1="15.875" y1="1.27" x2="16.51" y2="0.635" width="0.2032" layer="21"/>
<wire x1="16.51" y1="-0.635" x2="15.875" y2="-1.27" width="0.2032" layer="21"/>
<wire x1="11.43" y1="0.635" x2="12.065" y2="1.27" width="0.2032" layer="21"/>
<wire x1="12.065" y1="1.27" x2="13.335" y2="1.27" width="0.2032" layer="21"/>
<wire x1="13.335" y1="1.27" x2="13.97" y2="0.635" width="0.2032" layer="21"/>
<wire x1="13.97" y1="-0.635" x2="13.335" y2="-1.27" width="0.2032" layer="21"/>
<wire x1="13.335" y1="-1.27" x2="12.065" y2="-1.27" width="0.2032" layer="21"/>
<wire x1="12.065" y1="-1.27" x2="11.43" y2="-0.635" width="0.2032" layer="21"/>
<wire x1="14.605" y1="1.27" x2="13.97" y2="0.635" width="0.2032" layer="21"/>
<wire x1="13.97" y1="-0.635" x2="14.605" y2="-1.27" width="0.2032" layer="21"/>
<wire x1="15.875" y1="-1.27" x2="14.605" y2="-1.27" width="0.2032" layer="21"/>
<wire x1="6.985" y1="1.27" x2="8.255" y2="1.27" width="0.2032" layer="21"/>
<wire x1="8.255" y1="1.27" x2="8.89" y2="0.635" width="0.2032" layer="21"/>
<wire x1="8.89" y1="-0.635" x2="8.255" y2="-1.27" width="0.2032" layer="21"/>
<wire x1="8.89" y1="0.635" x2="9.525" y2="1.27" width="0.2032" layer="21"/>
<wire x1="9.525" y1="1.27" x2="10.795" y2="1.27" width="0.2032" layer="21"/>
<wire x1="10.795" y1="1.27" x2="11.43" y2="0.635" width="0.2032" layer="21"/>
<wire x1="11.43" y1="-0.635" x2="10.795" y2="-1.27" width="0.2032" layer="21"/>
<wire x1="10.795" y1="-1.27" x2="9.525" y2="-1.27" width="0.2032" layer="21"/>
<wire x1="9.525" y1="-1.27" x2="8.89" y2="-0.635" width="0.2032" layer="21"/>
<wire x1="3.81" y1="0.635" x2="4.445" y2="1.27" width="0.2032" layer="21"/>
<wire x1="4.445" y1="1.27" x2="5.715" y2="1.27" width="0.2032" layer="21"/>
<wire x1="5.715" y1="1.27" x2="6.35" y2="0.635" width="0.2032" layer="21"/>
<wire x1="6.35" y1="-0.635" x2="5.715" y2="-1.27" width="0.2032" layer="21"/>
<wire x1="5.715" y1="-1.27" x2="4.445" y2="-1.27" width="0.2032" layer="21"/>
<wire x1="4.445" y1="-1.27" x2="3.81" y2="-0.635" width="0.2032" layer="21"/>
<wire x1="6.985" y1="1.27" x2="6.35" y2="0.635" width="0.2032" layer="21"/>
<wire x1="6.35" y1="-0.635" x2="6.985" y2="-1.27" width="0.2032" layer="21"/>
<wire x1="8.255" y1="-1.27" x2="6.985" y2="-1.27" width="0.2032" layer="21"/>
<wire x1="-0.635" y1="1.27" x2="0.635" y2="1.27" width="0.2032" layer="21"/>
<wire x1="0.635" y1="1.27" x2="1.27" y2="0.635" width="0.2032" layer="21"/>
<wire x1="1.27" y1="-0.635" x2="0.635" y2="-1.27" width="0.2032" layer="21"/>
<wire x1="1.27" y1="0.635" x2="1.905" y2="1.27" width="0.2032" layer="21"/>
<wire x1="1.905" y1="1.27" x2="3.175" y2="1.27" width="0.2032" layer="21"/>
<wire x1="3.175" y1="1.27" x2="3.81" y2="0.635" width="0.2032" layer="21"/>
<wire x1="3.81" y1="-0.635" x2="3.175" y2="-1.27" width="0.2032" layer="21"/>
<wire x1="3.175" y1="-1.27" x2="1.905" y2="-1.27" width="0.2032" layer="21"/>
<wire x1="1.905" y1="-1.27" x2="1.27" y2="-0.635" width="0.2032" layer="21"/>
<wire x1="-1.27" y1="0.635" x2="-1.27" y2="-0.635" width="0.2032" layer="21"/>
<wire x1="-0.635" y1="1.27" x2="-1.27" y2="0.635" width="0.2032" layer="21"/>
<wire x1="-1.27" y1="-0.635" x2="-0.635" y2="-1.27" width="0.2032" layer="21"/>
<wire x1="0.635" y1="-1.27" x2="-0.635" y2="-1.27" width="0.2032" layer="21"/>
<wire x1="17.145" y1="1.27" x2="18.415" y2="1.27" width="0.2032" layer="21"/>
<wire x1="18.415" y1="1.27" x2="19.05" y2="0.635" width="0.2032" layer="21"/>
<wire x1="19.05" y1="0.635" x2="19.05" y2="-0.635" width="0.2032" layer="21"/>
<wire x1="19.05" y1="-0.635" x2="18.415" y2="-1.27" width="0.2032" layer="21"/>
<wire x1="17.145" y1="1.27" x2="16.51" y2="0.635" width="0.2032" layer="21"/>
<wire x1="16.51" y1="-0.635" x2="17.145" y2="-1.27" width="0.2032" layer="21"/>
<wire x1="18.415" y1="-1.27" x2="17.145" y2="-1.27" width="0.2032" layer="21"/>
<pad name="1" x="0" y="0" drill="1.016" diameter="1.8796" rot="R90"/>
<pad name="2" x="2.54" y="0" drill="1.016" diameter="1.8796" rot="R90"/>
<pad name="3" x="5.08" y="0" drill="1.016" diameter="1.8796" rot="R90"/>
<pad name="4" x="7.62" y="0" drill="1.016" diameter="1.8796" rot="R90"/>
<pad name="5" x="10.16" y="0" drill="1.016" diameter="1.8796" rot="R90"/>
<pad name="6" x="12.7" y="0" drill="1.016" diameter="1.8796" rot="R90"/>
<pad name="7" x="15.24" y="0" drill="1.016" diameter="1.8796" rot="R90"/>
<pad name="8" x="17.78" y="0" drill="1.016" diameter="1.8796" rot="R90"/>
<rectangle x1="14.986" y1="-0.254" x2="15.494" y2="0.254" layer="51"/>
<rectangle x1="12.446" y1="-0.254" x2="12.954" y2="0.254" layer="51"/>
<rectangle x1="9.906" y1="-0.254" x2="10.414" y2="0.254" layer="51"/>
<rectangle x1="7.366" y1="-0.254" x2="7.874" y2="0.254" layer="51"/>
<rectangle x1="4.826" y1="-0.254" x2="5.334" y2="0.254" layer="51"/>
<rectangle x1="2.286" y1="-0.254" x2="2.794" y2="0.254" layer="51"/>
<rectangle x1="-0.254" y1="-0.254" x2="0.254" y2="0.254" layer="51"/>
<rectangle x1="17.526" y1="-0.254" x2="18.034" y2="0.254" layer="51"/>
<text x="-1.27" y="1.397" size="0.6096" layer="25" font="vector" ratio="20">&gt;NAME</text>
<text x="-1.27" y="-2.032" size="0.6096" layer="27" font="vector" ratio="20">&gt;VALUE</text>
</package>
<package name="1X08_LOCK" urn="urn:adsk.eagle:footprint:37761/1" library_version="1">
<description>&lt;h3&gt;Plated Through Hole -8 Pin Locking Footprint&lt;/h3&gt;
Holes are offset 0.005", to hold pins in place during soldering. 
&lt;p&gt;Specifications:
&lt;ul&gt;&lt;li&gt;Pin count:8&lt;/li&gt;
&lt;li&gt;Pin pitch:0.1"&lt;/li&gt;
&lt;/ul&gt;&lt;/p&gt;
&lt;p&gt;Example device(s):
&lt;ul&gt;&lt;li&gt;CONN_08&lt;/li&gt;
&lt;/ul&gt;&lt;/p&gt;</description>
<wire x1="14.605" y1="1.27" x2="15.875" y2="1.27" width="0.2032" layer="21"/>
<wire x1="15.875" y1="1.27" x2="16.51" y2="0.635" width="0.2032" layer="21"/>
<wire x1="16.51" y1="-0.635" x2="15.875" y2="-1.27" width="0.2032" layer="21"/>
<wire x1="11.43" y1="0.635" x2="12.065" y2="1.27" width="0.2032" layer="21"/>
<wire x1="12.065" y1="1.27" x2="13.335" y2="1.27" width="0.2032" layer="21"/>
<wire x1="13.335" y1="1.27" x2="13.97" y2="0.635" width="0.2032" layer="21"/>
<wire x1="13.97" y1="-0.635" x2="13.335" y2="-1.27" width="0.2032" layer="21"/>
<wire x1="13.335" y1="-1.27" x2="12.065" y2="-1.27" width="0.2032" layer="21"/>
<wire x1="12.065" y1="-1.27" x2="11.43" y2="-0.635" width="0.2032" layer="21"/>
<wire x1="14.605" y1="1.27" x2="13.97" y2="0.635" width="0.2032" layer="21"/>
<wire x1="13.97" y1="-0.635" x2="14.605" y2="-1.27" width="0.2032" layer="21"/>
<wire x1="15.875" y1="-1.27" x2="14.605" y2="-1.27" width="0.2032" layer="21"/>
<wire x1="6.985" y1="1.27" x2="8.255" y2="1.27" width="0.2032" layer="21"/>
<wire x1="8.255" y1="1.27" x2="8.89" y2="0.635" width="0.2032" layer="21"/>
<wire x1="8.89" y1="-0.635" x2="8.255" y2="-1.27" width="0.2032" layer="21"/>
<wire x1="8.89" y1="0.635" x2="9.525" y2="1.27" width="0.2032" layer="21"/>
<wire x1="9.525" y1="1.27" x2="10.795" y2="1.27" width="0.2032" layer="21"/>
<wire x1="10.795" y1="1.27" x2="11.43" y2="0.635" width="0.2032" layer="21"/>
<wire x1="11.43" y1="-0.635" x2="10.795" y2="-1.27" width="0.2032" layer="21"/>
<wire x1="10.795" y1="-1.27" x2="9.525" y2="-1.27" width="0.2032" layer="21"/>
<wire x1="9.525" y1="-1.27" x2="8.89" y2="-0.635" width="0.2032" layer="21"/>
<wire x1="3.81" y1="0.635" x2="4.445" y2="1.27" width="0.2032" layer="21"/>
<wire x1="4.445" y1="1.27" x2="5.715" y2="1.27" width="0.2032" layer="21"/>
<wire x1="5.715" y1="1.27" x2="6.35" y2="0.635" width="0.2032" layer="21"/>
<wire x1="6.35" y1="-0.635" x2="5.715" y2="-1.27" width="0.2032" layer="21"/>
<wire x1="5.715" y1="-1.27" x2="4.445" y2="-1.27" width="0.2032" layer="21"/>
<wire x1="4.445" y1="-1.27" x2="3.81" y2="-0.635" width="0.2032" layer="21"/>
<wire x1="6.985" y1="1.27" x2="6.35" y2="0.635" width="0.2032" layer="21"/>
<wire x1="6.35" y1="-0.635" x2="6.985" y2="-1.27" width="0.2032" layer="21"/>
<wire x1="8.255" y1="-1.27" x2="6.985" y2="-1.27" width="0.2032" layer="21"/>
<wire x1="-0.635" y1="1.27" x2="0.635" y2="1.27" width="0.2032" layer="21"/>
<wire x1="0.635" y1="1.27" x2="1.27" y2="0.635" width="0.2032" layer="21"/>
<wire x1="1.27" y1="-0.635" x2="0.635" y2="-1.27" width="0.2032" layer="21"/>
<wire x1="1.27" y1="0.635" x2="1.905" y2="1.27" width="0.2032" layer="21"/>
<wire x1="1.905" y1="1.27" x2="3.175" y2="1.27" width="0.2032" layer="21"/>
<wire x1="3.175" y1="1.27" x2="3.81" y2="0.635" width="0.2032" layer="21"/>
<wire x1="3.81" y1="-0.635" x2="3.175" y2="-1.27" width="0.2032" layer="21"/>
<wire x1="3.175" y1="-1.27" x2="1.905" y2="-1.27" width="0.2032" layer="21"/>
<wire x1="1.905" y1="-1.27" x2="1.27" y2="-0.635" width="0.2032" layer="21"/>
<wire x1="-1.27" y1="0.635" x2="-1.27" y2="-0.635" width="0.2032" layer="21"/>
<wire x1="-0.635" y1="1.27" x2="-1.27" y2="0.635" width="0.2032" layer="21"/>
<wire x1="-1.27" y1="-0.635" x2="-0.635" y2="-1.27" width="0.2032" layer="21"/>
<wire x1="0.635" y1="-1.27" x2="-0.635" y2="-1.27" width="0.2032" layer="21"/>
<wire x1="17.145" y1="1.27" x2="18.415" y2="1.27" width="0.2032" layer="21"/>
<wire x1="18.415" y1="1.27" x2="19.05" y2="0.635" width="0.2032" layer="21"/>
<wire x1="19.05" y1="0.635" x2="19.05" y2="-0.635" width="0.2032" layer="21"/>
<wire x1="19.05" y1="-0.635" x2="18.415" y2="-1.27" width="0.2032" layer="21"/>
<wire x1="17.145" y1="1.27" x2="16.51" y2="0.635" width="0.2032" layer="21"/>
<wire x1="16.51" y1="-0.635" x2="17.145" y2="-1.27" width="0.2032" layer="21"/>
<wire x1="18.415" y1="-1.27" x2="17.145" y2="-1.27" width="0.2032" layer="21"/>
<pad name="1" x="0" y="0.127" drill="1.016" diameter="1.8796" rot="R90"/>
<pad name="2" x="2.54" y="-0.127" drill="1.016" diameter="1.8796" rot="R90"/>
<pad name="3" x="5.08" y="0.127" drill="1.016" diameter="1.8796" rot="R90"/>
<pad name="4" x="7.62" y="-0.127" drill="1.016" diameter="1.8796" rot="R90"/>
<pad name="5" x="10.16" y="0.127" drill="1.016" diameter="1.8796" rot="R90"/>
<pad name="6" x="12.7" y="-0.127" drill="1.016" diameter="1.8796" rot="R90"/>
<pad name="7" x="15.24" y="0.127" drill="1.016" diameter="1.8796" rot="R90"/>
<pad name="8" x="17.78" y="-0.127" drill="1.016" diameter="1.8796" rot="R90"/>
<rectangle x1="14.986" y1="-0.254" x2="15.494" y2="0.254" layer="51"/>
<rectangle x1="12.446" y1="-0.254" x2="12.954" y2="0.254" layer="51"/>
<rectangle x1="9.906" y1="-0.254" x2="10.414" y2="0.254" layer="51"/>
<rectangle x1="7.366" y1="-0.254" x2="7.874" y2="0.254" layer="51"/>
<rectangle x1="4.826" y1="-0.254" x2="5.334" y2="0.254" layer="51"/>
<rectangle x1="2.286" y1="-0.254" x2="2.794" y2="0.254" layer="51"/>
<rectangle x1="-0.254" y1="-0.254" x2="0.254" y2="0.254" layer="51"/>
<rectangle x1="17.526" y1="-0.254" x2="18.034" y2="0.254" layer="51"/>
<text x="-1.27" y="1.397" size="0.6096" layer="25" font="vector" ratio="20">&gt;NAME</text>
<text x="-1.27" y="-2.032" size="0.6096" layer="27" font="vector" ratio="20">&gt;VALUE</text>
</package>
<package name="1X08_LOCK_LONGPADS" urn="urn:adsk.eagle:footprint:37762/1" library_version="1">
<description>&lt;h3&gt;Plated Through Hole -8 Pin Locking Footprint with Long Pads&lt;/h3&gt;
Holes are offset 0.005", to hold pins in place during soldering. 
&lt;p&gt;Specifications:
&lt;ul&gt;&lt;li&gt;Pin count:8&lt;/li&gt;
&lt;li&gt;Pin pitch:0.1"&lt;/li&gt;
&lt;/ul&gt;&lt;/p&gt;
&lt;p&gt;Example device(s):
&lt;ul&gt;&lt;li&gt;CONN_08&lt;/li&gt;
&lt;/ul&gt;&lt;/p&gt;</description>
<wire x1="1.524" y1="0" x2="1.016" y2="0" width="0.2032" layer="21"/>
<wire x1="4.064" y1="0" x2="3.556" y2="0" width="0.2032" layer="21"/>
<wire x1="6.604" y1="0" x2="6.096" y2="0" width="0.2032" layer="21"/>
<wire x1="9.144" y1="0" x2="8.636" y2="0" width="0.2032" layer="21"/>
<wire x1="11.684" y1="0" x2="11.176" y2="0" width="0.2032" layer="21"/>
<wire x1="-1.27" y1="0" x2="-1.016" y2="0" width="0.2032" layer="21"/>
<wire x1="-1.27" y1="0" x2="-1.27" y2="0.9906" width="0.2032" layer="21"/>
<wire x1="-1.27" y1="0.9906" x2="-0.9906" y2="1.27" width="0.2032" layer="21"/>
<wire x1="-1.27" y1="0" x2="-1.27" y2="-0.9906" width="0.2032" layer="21"/>
<wire x1="-1.27" y1="-0.9906" x2="-0.9906" y2="-1.27" width="0.2032" layer="21"/>
<wire x1="14.224" y1="0" x2="13.716" y2="0" width="0.2032" layer="21"/>
<wire x1="16.764" y1="0" x2="16.256" y2="0" width="0.2032" layer="21"/>
<wire x1="19.05" y1="0" x2="19.05" y2="-0.9906" width="0.2032" layer="21"/>
<wire x1="19.05" y1="-0.9906" x2="18.7706" y2="-1.27" width="0.2032" layer="21"/>
<wire x1="19.05" y1="0" x2="19.05" y2="0.9906" width="0.2032" layer="21"/>
<wire x1="19.05" y1="0.9906" x2="18.7706" y2="1.27" width="0.2032" layer="21"/>
<wire x1="19.05" y1="0" x2="18.796" y2="0" width="0.2032" layer="21"/>
<pad name="1" x="0" y="0.127" drill="1.016" shape="long" rot="R90"/>
<pad name="2" x="2.54" y="-0.127" drill="1.016" shape="long" rot="R90"/>
<pad name="3" x="5.08" y="0.127" drill="1.016" shape="long" rot="R90"/>
<pad name="4" x="7.62" y="-0.127" drill="1.016" shape="long" rot="R90"/>
<pad name="5" x="10.16" y="0.127" drill="1.016" shape="long" rot="R90"/>
<pad name="6" x="12.7" y="-0.127" drill="1.016" shape="long" rot="R90"/>
<pad name="7" x="15.24" y="0.127" drill="1.016" shape="long" rot="R90"/>
<pad name="8" x="17.78" y="-0.127" drill="1.016" shape="long" rot="R90"/>
<rectangle x1="-0.2921" y1="-0.2921" x2="0.2921" y2="0.2921" layer="51"/>
<rectangle x1="2.2479" y1="-0.2921" x2="2.8321" y2="0.2921" layer="51"/>
<rectangle x1="4.7879" y1="-0.2921" x2="5.3721" y2="0.2921" layer="51"/>
<rectangle x1="7.3279" y1="-0.2921" x2="7.9121" y2="0.2921" layer="51" rot="R90"/>
<rectangle x1="9.8679" y1="-0.2921" x2="10.4521" y2="0.2921" layer="51"/>
<rectangle x1="12.4079" y1="-0.2921" x2="12.9921" y2="0.2921" layer="51"/>
<rectangle x1="14.9479" y1="-0.2921" x2="15.5321" y2="0.2921" layer="51"/>
<rectangle x1="17.4879" y1="-0.2921" x2="18.0721" y2="0.2921" layer="51"/>
<text x="-0.889" y="1.778" size="0.6096" layer="25" font="vector" ratio="20">&gt;NAME</text>
<text x="-1.143" y="-2.286" size="0.6096" layer="27" font="vector" ratio="20">&gt;VALUE</text>
</package>
<package name="1X08_LONGPADS" urn="urn:adsk.eagle:footprint:37763/1" library_version="1">
<description>&lt;h3&gt;Plated Through Hole -8 Pin Long Pads&lt;/h3&gt;
&lt;p&gt;Specifications:
&lt;ul&gt;&lt;li&gt;Pin count:8&lt;/li&gt;
&lt;li&gt;Pin pitch:0.1"&lt;/li&gt;
&lt;/ul&gt;&lt;/p&gt;
&lt;p&gt;Example device(s):
&lt;ul&gt;&lt;li&gt;CONN_08&lt;/li&gt;
&lt;/ul&gt;&lt;/p&gt;</description>
<wire x1="-1.27" y1="0.635" x2="-1.27" y2="-0.635" width="0.2032" layer="21"/>
<wire x1="19.05" y1="0.635" x2="19.05" y2="-0.635" width="0.2032" layer="21"/>
<pad name="1" x="0" y="0" drill="1.1176" diameter="1.8796" shape="long" rot="R90"/>
<pad name="2" x="2.54" y="0" drill="1.1176" diameter="1.8796" shape="long" rot="R90"/>
<pad name="3" x="5.08" y="0" drill="1.1176" diameter="1.8796" shape="long" rot="R90"/>
<pad name="4" x="7.62" y="0" drill="1.1176" diameter="1.8796" shape="long" rot="R90"/>
<pad name="5" x="10.16" y="0" drill="1.1176" diameter="1.8796" shape="long" rot="R90"/>
<pad name="6" x="12.7" y="0" drill="1.1176" diameter="1.8796" shape="long" rot="R90"/>
<pad name="7" x="15.24" y="0" drill="1.1176" diameter="1.8796" shape="long" rot="R90"/>
<pad name="8" x="17.78" y="0" drill="1.1176" diameter="1.8796" shape="long" rot="R90"/>
<rectangle x1="14.986" y1="-0.254" x2="15.494" y2="0.254" layer="51"/>
<rectangle x1="12.446" y1="-0.254" x2="12.954" y2="0.254" layer="51"/>
<rectangle x1="9.906" y1="-0.254" x2="10.414" y2="0.254" layer="51"/>
<rectangle x1="7.366" y1="-0.254" x2="7.874" y2="0.254" layer="51"/>
<rectangle x1="4.826" y1="-0.254" x2="5.334" y2="0.254" layer="51"/>
<rectangle x1="2.286" y1="-0.254" x2="2.794" y2="0.254" layer="51"/>
<rectangle x1="-0.254" y1="-0.254" x2="0.254" y2="0.254" layer="51"/>
<rectangle x1="17.526" y1="-0.254" x2="18.034" y2="0.254" layer="51"/>
<text x="-1.143" y="2.159" size="0.6096" layer="25" font="vector" ratio="20">&gt;NAME</text>
<text x="-1.016" y="-2.794" size="0.6096" layer="27" font="vector" ratio="20">&gt;VALUE</text>
</package>
<package name="SCREWTERMINAL-3.5MM-8" urn="urn:adsk.eagle:footprint:37764/1" library_version="1">
<description>&lt;h3&gt;Screw Terminal  3.5mm Pitch -8 Pin PTH&lt;/h3&gt;
&lt;p&gt;Specifications:
&lt;ul&gt;&lt;li&gt;Pin count: 8&lt;/li&gt;
&lt;li&gt;Pin pitch: 3.5mm/138mil&lt;/li&gt;
&lt;/ul&gt;&lt;/p&gt;
&lt;p&gt;&lt;a href=”https://www.sparkfun.com/datasheets/Prototyping/Screw-Terminal-3.5mm.pdf”&gt;Datasheet referenced for footprint&lt;/a&gt;&lt;/p&gt;
&lt;p&gt;Example device(s):
&lt;ul&gt;&lt;li&gt;CONN_08&lt;/li&gt;
&lt;/ul&gt;&lt;/p&gt;</description>
<wire x1="-1.75" y1="3.4" x2="26.25" y2="3.4" width="0.2032" layer="21"/>
<wire x1="26.25" y1="3.4" x2="26.25" y2="-2.8" width="0.2032" layer="21"/>
<wire x1="26.25" y1="-2.8" x2="26.25" y2="-3.6" width="0.2032" layer="21"/>
<wire x1="26.25" y1="-3.6" x2="-1.75" y2="-3.6" width="0.2032" layer="21"/>
<wire x1="-1.75" y1="-3.6" x2="-1.75" y2="-2.8" width="0.2032" layer="21"/>
<wire x1="-1.75" y1="-2.8" x2="-1.75" y2="3.4" width="0.2032" layer="21"/>
<wire x1="26.25" y1="-2.8" x2="-1.75" y2="-2.8" width="0.2032" layer="21"/>
<wire x1="-1.75" y1="-1.35" x2="-2.25" y2="-1.35" width="0.2032" layer="51"/>
<wire x1="-2.25" y1="-1.35" x2="-2.25" y2="-2.35" width="0.2032" layer="51"/>
<wire x1="-2.25" y1="-2.35" x2="-1.75" y2="-2.35" width="0.2032" layer="51"/>
<wire x1="26.25" y1="3.15" x2="26.75" y2="3.15" width="0.2032" layer="51"/>
<wire x1="26.75" y1="3.15" x2="26.75" y2="2.15" width="0.2032" layer="51"/>
<wire x1="26.75" y1="2.15" x2="26.25" y2="2.15" width="0.2032" layer="51"/>
<wire x1="1.016" y1="-1.524" x2="-0.889" y2="-1.524" width="0.2032" layer="21"/>
<wire x1="-0.889" y1="-1.524" x2="1.016" y2="-1.524" width="0.2032" layer="22"/>
<pad name="1" x="0" y="0" drill="1.2" diameter="2.032"/>
<pad name="2" x="3.5" y="0" drill="1.2" diameter="2.032"/>
<pad name="3" x="7" y="0" drill="1.2" diameter="2.032"/>
<pad name="4" x="10.5" y="0" drill="1.2" diameter="2.032"/>
<pad name="5" x="14" y="0" drill="1.2" diameter="2.032"/>
<pad name="6" x="17.5" y="0" drill="1.2" diameter="2.032"/>
<pad name="7" x="21" y="0" drill="1.2" diameter="2.032"/>
<pad name="8" x="24.5" y="0" drill="1.2" diameter="2.032"/>
<text x="11.049" y="2.286" size="0.6096" layer="25" font="vector" ratio="20">&gt;NAME</text>
<text x="10.795" y="1.397" size="0.6096" layer="27" font="vector" ratio="20">&gt;VALUE</text>
</package>
<package name="1X08_SMD" urn="urn:adsk.eagle:footprint:37765/1" library_version="1">
<description>&lt;h3&gt;SMD -8 Pin Vertical Female&lt;/h3&gt;
&lt;p&gt;Specifications:
&lt;ul&gt;&lt;li&gt;Pin count:8&lt;/li&gt;
&lt;li&gt;Pin pitch:0.1"&lt;/li&gt;
&lt;/ul&gt;&lt;/p&gt;
&lt;p&gt;&lt;a href=”http://cdn.sparkfun.com/datasheets/Prototyping/femaleSMDheader.pdf”&gt;Datasheet referenced for footprint&lt;/a&gt;&lt;/p&gt;
&lt;p&gt;Example device(s):
&lt;ul&gt;&lt;li&gt;CONN_08&lt;/li&gt;
&lt;/ul&gt;&lt;/p&gt;</description>
<wire x1="1.37" y1="1.25" x2="-19.15" y2="1.25" width="0.127" layer="51"/>
<wire x1="-19.15" y1="1.25" x2="-19.15" y2="-1.25" width="0.127" layer="51"/>
<wire x1="-19.15" y1="-1.25" x2="1.37" y2="-1.25" width="0.127" layer="51"/>
<wire x1="1.37" y1="-1.25" x2="1.37" y2="1.25" width="0.127" layer="51"/>
<wire x1="1.37" y1="1.25" x2="1.37" y2="-1.25" width="0.127" layer="21"/>
<wire x1="-19.15" y1="-1.25" x2="-19.15" y2="1.25" width="0.127" layer="21"/>
<wire x1="0.85" y1="1.25" x2="1.37" y2="1.25" width="0.127" layer="21"/>
<wire x1="-19.15" y1="1.25" x2="-15.963" y2="1.25" width="0.127" layer="21"/>
<wire x1="-18.63" y1="-1.25" x2="-19.15" y2="-1.25" width="0.127" layer="21"/>
<wire x1="1.37" y1="-1.25" x2="-1.817" y2="-1.25" width="0.127" layer="21"/>
<wire x1="-4.377" y1="1.25" x2="-0.703" y2="1.25" width="0.127" layer="21"/>
<wire x1="-9.457" y1="1.25" x2="-5.783" y2="1.25" width="0.127" layer="21"/>
<wire x1="-14.537" y1="1.25" x2="-10.863" y2="1.25" width="0.127" layer="21"/>
<wire x1="-3.329" y1="-1.25" x2="-6.831" y2="-1.25" width="0.127" layer="21"/>
<wire x1="-8.409" y1="-1.25" x2="-11.911" y2="-1.25" width="0.127" layer="21"/>
<wire x1="-13.489" y1="-1.25" x2="-16.991" y2="-1.25" width="0.127" layer="21"/>
<smd name="7" x="-15.24" y="1.65" dx="2" dy="1" layer="1" rot="R90"/>
<smd name="5" x="-10.16" y="1.65" dx="2" dy="1" layer="1" rot="R90"/>
<smd name="3" x="-5.08" y="1.65" dx="2" dy="1" layer="1" rot="R90"/>
<smd name="1" x="0" y="1.65" dx="2" dy="1" layer="1" rot="R90"/>
<smd name="8" x="-17.78" y="-1.65" dx="2" dy="1" layer="1" rot="R90"/>
<smd name="6" x="-12.7" y="-1.65" dx="2" dy="1" layer="1" rot="R90"/>
<smd name="4" x="-7.62" y="-1.65" dx="2" dy="1" layer="1" rot="R90"/>
<smd name="2" x="-2.54" y="-1.65" dx="2" dy="1" layer="1" rot="R90"/>
<text x="-18.542" y="2.921" size="0.6096" layer="25" font="vector" ratio="20">&gt;NAME</text>
<text x="-18.542" y="-3.556" size="0.6096" layer="27" font="vector" ratio="20">&gt;VALUE</text>
</package>
<package name="1X08_SMD_ALT" urn="urn:adsk.eagle:footprint:37766/1" library_version="1">
<description>&lt;h3&gt;SMD -8 Pin Vertical Female&lt;/h3&gt;
Alternate pin configuration
&lt;p&gt;Specifications:
&lt;ul&gt;&lt;li&gt;Pin count:8&lt;/li&gt;
&lt;li&gt;Pin pitch:0.1"&lt;/li&gt;
&lt;/ul&gt;&lt;/p&gt;
&lt;p&gt;&lt;a href=”http://cdn.sparkfun.com/datasheets/Prototyping/femaleSMDheader.pdf”&gt;Datasheet referenced for footprint&lt;/a&gt;&lt;/p&gt;
&lt;p&gt;Example device(s):
&lt;ul&gt;&lt;li&gt;CONN_08&lt;/li&gt;
&lt;/ul&gt;&lt;/p&gt;</description>
<wire x1="1.37" y1="1.25" x2="-19.15" y2="1.25" width="0.127" layer="51"/>
<wire x1="-19.15" y1="1.25" x2="-19.15" y2="-1.25" width="0.127" layer="51"/>
<wire x1="-19.15" y1="-1.25" x2="1.37" y2="-1.25" width="0.127" layer="51"/>
<wire x1="1.37" y1="-1.25" x2="1.37" y2="1.25" width="0.127" layer="51"/>
<wire x1="-19.15" y1="1.25" x2="-19.15" y2="-1.25" width="0.127" layer="21"/>
<wire x1="1.37" y1="-1.25" x2="1.37" y2="1.25" width="0.127" layer="21"/>
<wire x1="-18.63" y1="1.25" x2="-19.15" y2="1.25" width="0.127" layer="21"/>
<wire x1="1.37" y1="1.25" x2="-1.817" y2="1.25" width="0.127" layer="21"/>
<wire x1="0.85" y1="-1.25" x2="1.37" y2="-1.25" width="0.127" layer="21"/>
<wire x1="-19.15" y1="-1.25" x2="-15.963" y2="-1.25" width="0.127" layer="21"/>
<wire x1="-13.403" y1="1.25" x2="-17.077" y2="1.25" width="0.127" layer="21"/>
<wire x1="-8.323" y1="1.25" x2="-11.997" y2="1.25" width="0.127" layer="21"/>
<wire x1="-3.243" y1="1.25" x2="-6.917" y2="1.25" width="0.127" layer="21"/>
<wire x1="-14.451" y1="-1.25" x2="-10.949" y2="-1.25" width="0.127" layer="21"/>
<wire x1="-9.371" y1="-1.25" x2="-5.869" y2="-1.25" width="0.127" layer="21"/>
<wire x1="-4.291" y1="-1.25" x2="-0.789" y2="-1.25" width="0.127" layer="21"/>
<smd name="7" x="-15.24" y="-1.65" dx="2" dy="1" layer="1" rot="R270"/>
<smd name="5" x="-10.16" y="-1.65" dx="2" dy="1" layer="1" rot="R270"/>
<smd name="3" x="-5.08" y="-1.65" dx="2" dy="1" layer="1" rot="R270"/>
<smd name="1" x="0" y="-1.65" dx="2" dy="1" layer="1" rot="R270"/>
<smd name="8" x="-17.78" y="1.65" dx="2" dy="1" layer="1" rot="R270"/>
<smd name="6" x="-12.7" y="1.65" dx="2" dy="1" layer="1" rot="R270"/>
<smd name="4" x="-7.62" y="1.65" dx="2" dy="1" layer="1" rot="R270"/>
<smd name="2" x="-2.54" y="1.65" dx="2" dy="1" layer="1" rot="R270"/>
<text x="-18.796" y="2.921" size="0.6096" layer="25" font="vector" ratio="20">&gt;NAME</text>
<text x="-18.923" y="-3.556" size="0.6096" layer="27" font="vector" ratio="20">&gt;VALUE</text>
</package>
<package name="1X08_SMD_COMBINED" urn="urn:adsk.eagle:footprint:37767/1" library_version="1">
<description>&lt;h3&gt;SMD -8 Pin Vertical Female&lt;/h3&gt;
Combined footprint configuration
&lt;p&gt;Specifications:
&lt;ul&gt;&lt;li&gt;Pin count:8&lt;/li&gt;
&lt;li&gt;Pin pitch:0.1"&lt;/li&gt;
&lt;/ul&gt;&lt;/p&gt;
&lt;p&gt;&lt;a href=”http://cdn.sparkfun.com/datasheets/Prototyping/femaleSMDheader.pdf”&gt;Datasheet referenced for footprint&lt;/a&gt;&lt;/p&gt;
&lt;p&gt;Example device(s):
&lt;ul&gt;&lt;li&gt;CONN_08&lt;/li&gt;
&lt;/ul&gt;&lt;/p&gt;</description>
<wire x1="-1.37" y1="-1.25" x2="-1.37" y2="1.25" width="0.127" layer="21"/>
<wire x1="19.15" y1="1.25" x2="19.15" y2="-1.25" width="0.127" layer="21"/>
<wire x1="-0.85" y1="-1.25" x2="-1.37" y2="-1.25" width="0.127" layer="21"/>
<wire x1="19.15" y1="-1.25" x2="18.503" y2="-1.25" width="0.127" layer="21"/>
<wire x1="18.63" y1="1.25" x2="19.15" y2="1.25" width="0.127" layer="21"/>
<wire x1="-1.37" y1="1.25" x2="-0.723" y2="1.25" width="0.127" layer="21"/>
<wire x1="14.537" y1="-1.25" x2="13.403" y2="-1.25" width="0.127" layer="21"/>
<wire x1="0.789" y1="1.25" x2="1.751" y2="1.25" width="0.127" layer="21"/>
<wire x1="3.329" y1="1.25" x2="4.291" y2="1.25" width="0.127" layer="21"/>
<wire x1="5.869" y1="1.25" x2="6.831" y2="1.25" width="0.127" layer="21"/>
<wire x1="8.409" y1="1.25" x2="9.371" y2="1.25" width="0.127" layer="21"/>
<wire x1="10.949" y1="1.25" x2="11.911" y2="1.25" width="0.127" layer="21"/>
<wire x1="13.489" y1="1.25" x2="14.451" y2="1.25" width="0.127" layer="21"/>
<wire x1="16.029" y1="1.25" x2="16.991" y2="1.25" width="0.127" layer="21"/>
<wire x1="17.077" y1="-1.25" x2="15.943" y2="-1.25" width="0.127" layer="21"/>
<wire x1="11.997" y1="-1.25" x2="10.863" y2="-1.25" width="0.127" layer="21"/>
<wire x1="9.457" y1="-1.25" x2="8.323" y2="-1.25" width="0.127" layer="21"/>
<wire x1="6.917" y1="-1.25" x2="5.783" y2="-1.25" width="0.127" layer="21"/>
<wire x1="4.377" y1="-1.25" x2="3.243" y2="-1.25" width="0.127" layer="21"/>
<wire x1="1.837" y1="-1.25" x2="0.703" y2="-1.25" width="0.127" layer="21"/>
<wire x1="17.78" y1="1.27" x2="17.78" y2="-1.27" width="0.4064" layer="1"/>
<wire x1="15.24" y1="1.27" x2="15.24" y2="-1.27" width="0.4064" layer="1"/>
<wire x1="12.7" y1="1.27" x2="12.7" y2="-1.27" width="0.4064" layer="1"/>
<wire x1="10.16" y1="1.27" x2="10.16" y2="-1.27" width="0.4064" layer="1"/>
<wire x1="7.62" y1="1.27" x2="7.62" y2="-1.27" width="0.4064" layer="1"/>
<wire x1="5.08" y1="1.27" x2="5.08" y2="-1.27" width="0.4064" layer="1"/>
<wire x1="2.54" y1="1.27" x2="2.54" y2="-1.27" width="0.4064" layer="1"/>
<wire x1="0" y1="1.27" x2="0" y2="-1.27" width="0.4064" layer="1"/>
<smd name="7@2" x="15.24" y="-1.65" dx="2" dy="1" layer="1" rot="R270"/>
<smd name="5@2" x="10.16" y="-1.65" dx="2" dy="1" layer="1" rot="R270"/>
<smd name="3@2" x="5.08" y="-1.65" dx="2" dy="1" layer="1" rot="R270"/>
<smd name="8@2" x="17.78" y="1.65" dx="2" dy="1" layer="1" rot="R270"/>
<smd name="6@2" x="12.7" y="1.65" dx="2" dy="1" layer="1" rot="R270"/>
<smd name="4@2" x="7.62" y="1.65" dx="2" dy="1" layer="1" rot="R270"/>
<smd name="2@2" x="2.54" y="1.65" dx="2" dy="1" layer="1" rot="R270"/>
<smd name="1" x="0" y="1.65" dx="2" dy="1" layer="1" rot="R90"/>
<smd name="2" x="2.54" y="-1.65" dx="2" dy="1" layer="1" rot="R90"/>
<smd name="3" x="5.08" y="1.65" dx="2" dy="1" layer="1" rot="R90"/>
<smd name="4" x="7.62" y="-1.65" dx="2" dy="1" layer="1" rot="R90"/>
<smd name="5" x="10.16" y="1.65" dx="2" dy="1" layer="1" rot="R90"/>
<smd name="6" x="12.7" y="-1.65" dx="2" dy="1" layer="1" rot="R90"/>
<smd name="7" x="15.24" y="1.65" dx="2" dy="1" layer="1" rot="R90"/>
<smd name="8" x="17.78" y="-1.65" dx="2" dy="1" layer="1" rot="R270"/>
<smd name="1@2" x="0" y="-1.65" dx="2" dy="1" layer="1" rot="R270"/>
<text x="-0.381" y="3.048" size="0.6096" layer="25" font="vector" ratio="20">&gt;NAME</text>
<text x="-0.508" y="-3.556" size="0.6096" layer="27" font="vector" ratio="20">&gt;VALUE</text>
</package>
<package name="BM08B-SRSS-TB" urn="urn:adsk.eagle:footprint:37768/1" library_version="1">
<description>&lt;h3&gt;JST Vertical Crimp Connect&lt;/h3&gt;
&lt;p&gt;Specifications:
&lt;ul&gt;&lt;li&gt;Pin count: 8&lt;/li&gt;
&lt;li&gt;Pin pitch:1mm&lt;/li&gt;
&lt;/ul&gt;&lt;/p&gt;
&lt;p&gt;&lt;a href=”http://www.jst-mfg.com/product/pdf/eng/eSR.pdf”&gt;Datasheet referenced for footprint&lt;/a&gt;&lt;/p&gt;
&lt;p&gt;Example device(s):
&lt;ul&gt;&lt;li&gt;CONN_08&lt;/li&gt;
&lt;/ul&gt;&lt;/p&gt;</description>
<wire x1="-5" y1="3.3" x2="5" y2="3.3" width="0.127" layer="51"/>
<wire x1="-5" y1="0.4" x2="-5" y2="3.3" width="0.127" layer="51"/>
<wire x1="5" y1="0.4" x2="5" y2="3.3" width="0.127" layer="51"/>
<wire x1="-5" y1="0.4" x2="5" y2="0.4" width="0.127" layer="51"/>
<wire x1="-4.1" y1="0.35" x2="-5.05" y2="0.35" width="0.2032" layer="21"/>
<wire x1="-5.05" y1="0.35" x2="-5.05" y2="1.35" width="0.2032" layer="21"/>
<wire x1="5.05" y1="0.35" x2="4.15" y2="0.35" width="0.2032" layer="21"/>
<wire x1="5.05" y1="0.35" x2="5.05" y2="1.35" width="0.2032" layer="21"/>
<wire x1="-3.9" y1="3.4" x2="3.9" y2="3.4" width="0.2032" layer="21"/>
<circle x="-4.4" y="-0.35" radius="0.1118" width="0.4064" layer="21"/>
<smd name="1" x="-3.5" y="0" dx="0.6" dy="1.55" layer="1" rot="R180"/>
<smd name="2" x="-2.5" y="0" dx="0.6" dy="1.55" layer="1" rot="R180"/>
<smd name="3" x="-1.5" y="0" dx="0.6" dy="1.55" layer="1" rot="R180"/>
<smd name="4" x="-0.5" y="0" dx="0.6" dy="1.55" layer="1" rot="R180"/>
<smd name="5" x="0.5" y="0" dx="0.6" dy="1.55" layer="1" rot="R180"/>
<smd name="6" x="1.5" y="0" dx="0.6" dy="1.55" layer="1" rot="R180"/>
<smd name="7" x="2.5" y="0" dx="0.6" dy="1.55" layer="1" rot="R180"/>
<smd name="8" x="3.5" y="0" dx="0.6" dy="1.55" layer="1" rot="R180"/>
<smd name="P$9" x="4.8" y="2.525" dx="1.8" dy="1.2" layer="1" rot="R90"/>
<smd name="P$10" x="-4.8" y="2.525" dx="1.8" dy="1.2" layer="1" rot="R90"/>
<text x="-1.397" y="2.159" size="0.6096" layer="25" font="vector" ratio="20">&gt;NAME</text>
<text x="-1.651" y="1.27" size="0.6096" layer="27" font="vector" ratio="20">&gt;VALUE</text>
</package>
<package name="1X08_SMD_MALE" urn="urn:adsk.eagle:footprint:37769/1" library_version="1">
<description>&lt;h3&gt;SMD -8 Pin Vertical Male&lt;/h3&gt;
&lt;p&gt;Specifications:
&lt;ul&gt;&lt;li&gt;Pin count:8&lt;/li&gt;
&lt;li&gt;Pin pitch:0.1"&lt;/li&gt;
&lt;/ul&gt;&lt;/p&gt;
&lt;p&gt;&lt;a href=”http://cdn.sparkfun.com/datasheets/Prototyping/maleSMDheader.pdf”&gt;Datasheet referenced for footprint&lt;/a&gt;&lt;/p&gt;
&lt;p&gt;Example device(s):
&lt;ul&gt;&lt;li&gt;CONN_08&lt;/li&gt;
&lt;/ul&gt;&lt;/p&gt;</description>
<wire x1="-1.27" y1="1.25" x2="-1.27" y2="-1.25" width="0.127" layer="51"/>
<wire x1="-1.27" y1="-1.25" x2="19.05" y2="-1.25" width="0.127" layer="51"/>
<wire x1="19.05" y1="-1.25" x2="19.05" y2="1.25" width="0.127" layer="51"/>
<wire x1="19.05" y1="1.25" x2="-1.27" y2="1.25" width="0.127" layer="51"/>
<wire x1="-1.27" y1="1.25" x2="-1.27" y2="-1.25" width="0.1778" layer="21"/>
<wire x1="-1.27" y1="-1.25" x2="-0.635" y2="-1.25" width="0.1778" layer="21"/>
<wire x1="-1.27" y1="1.25" x2="-0.635" y2="1.25" width="0.1778" layer="21"/>
<wire x1="0.762" y1="1.25" x2="1.778" y2="1.25" width="0.1778" layer="21"/>
<wire x1="3.302" y1="1.25" x2="4.318" y2="1.25" width="0.1778" layer="21"/>
<wire x1="5.842" y1="1.25" x2="6.858" y2="1.25" width="0.1778" layer="21"/>
<wire x1="8.382" y1="1.25" x2="9.398" y2="1.25" width="0.1778" layer="21"/>
<wire x1="10.922" y1="1.25" x2="11.938" y2="1.25" width="0.1778" layer="21"/>
<wire x1="1.778" y1="-1.25" x2="0.762" y2="-1.25" width="0.1778" layer="21"/>
<wire x1="4.318" y1="-1.25" x2="3.302" y2="-1.25" width="0.1778" layer="21"/>
<wire x1="6.858" y1="-1.25" x2="5.842" y2="-1.25" width="0.1778" layer="21"/>
<wire x1="9.398" y1="-1.25" x2="8.382" y2="-1.25" width="0.1778" layer="21"/>
<wire x1="11.938" y1="-1.25" x2="10.922" y2="-1.25" width="0.1778" layer="21"/>
<wire x1="19.05" y1="-1.25" x2="19.05" y2="1.25" width="0.1778" layer="21"/>
<wire x1="16.002" y1="1.25" x2="17.018" y2="1.25" width="0.1778" layer="21"/>
<wire x1="17.018" y1="-1.25" x2="16.002" y2="-1.25" width="0.1778" layer="21"/>
<wire x1="19.05" y1="-1.25" x2="18.415" y2="-1.25" width="0.1778" layer="21"/>
<wire x1="19.05" y1="1.25" x2="18.415" y2="1.25" width="0.1778" layer="21"/>
<wire x1="13.462" y1="1.25" x2="14.478" y2="1.25" width="0.1778" layer="21"/>
<wire x1="14.478" y1="-1.25" x2="13.462" y2="-1.25" width="0.1778" layer="21"/>
<circle x="0" y="0" radius="0.64" width="0.127" layer="51"/>
<circle x="2.54" y="0" radius="0.64" width="0.127" layer="51"/>
<circle x="5.08" y="0" radius="0.64" width="0.127" layer="51"/>
<circle x="7.62" y="0" radius="0.64" width="0.127" layer="51"/>
<circle x="10.16" y="0" radius="0.64" width="0.127" layer="51"/>
<circle x="12.7" y="0" radius="0.64" width="0.127" layer="51"/>
<circle x="15.24" y="0" radius="0.64" width="0.127" layer="51"/>
<circle x="17.78" y="0" radius="0.64" width="0.127" layer="51"/>
<rectangle x1="-0.32" y1="0" x2="0.32" y2="2.75" layer="51"/>
<rectangle x1="4.76" y1="0" x2="5.4" y2="2.75" layer="51"/>
<rectangle x1="9.84" y1="0" x2="10.48" y2="2.75" layer="51"/>
<rectangle x1="2.22" y1="-2.75" x2="2.86" y2="0" layer="51" rot="R180"/>
<rectangle x1="7.3" y1="-2.75" x2="7.94" y2="0" layer="51" rot="R180"/>
<rectangle x1="12.38" y1="-2.75" x2="13.02" y2="0" layer="51" rot="R180"/>
<rectangle x1="14.92" y1="0" x2="15.56" y2="2.75" layer="51"/>
<rectangle x1="17.46" y1="-2.75" x2="18.1" y2="0" layer="51" rot="R180"/>
<smd name="1" x="0" y="0" dx="1.02" dy="6" layer="1"/>
<smd name="2" x="2.54" y="0" dx="1.02" dy="6" layer="1"/>
<smd name="3" x="5.08" y="0" dx="1.02" dy="6" layer="1"/>
<smd name="4" x="7.62" y="0" dx="1.02" dy="6" layer="1"/>
<smd name="5" x="10.16" y="0" dx="1.02" dy="6" layer="1"/>
<smd name="6" x="12.7" y="0" dx="1.02" dy="6" layer="1"/>
<smd name="7" x="15.24" y="0" dx="1.02" dy="6" layer="1"/>
<smd name="8" x="17.78" y="0" dx="1.02" dy="6" layer="1"/>
<text x="-0.508" y="3.302" size="0.6096" layer="25" font="vector" ratio="20">&gt;NAME</text>
<text x="-0.635" y="-3.937" size="0.6096" layer="27" font="vector" ratio="20">&gt;VALUE</text>
</package>
<package name="1X08_NO_SILK" urn="urn:adsk.eagle:footprint:37770/1" library_version="1">
<description>&lt;h3&gt;Plated Through Hole -8 Pin No Silk&lt;/h3&gt;
&lt;p&gt;Specifications:
&lt;ul&gt;&lt;li&gt;Pin count:8&lt;/li&gt;
&lt;li&gt;Pin pitch:0.1"&lt;/li&gt;
&lt;/ul&gt;&lt;/p&gt;
&lt;p&gt;Example device(s):
&lt;ul&gt;&lt;li&gt;CONN_08&lt;/li&gt;
&lt;/ul&gt;&lt;/p&gt;</description>
<pad name="1" x="0" y="0" drill="1.016" diameter="1.8796" rot="R90"/>
<pad name="2" x="2.54" y="0" drill="1.016" diameter="1.8796" rot="R90"/>
<pad name="3" x="5.08" y="0" drill="1.016" diameter="1.8796" rot="R90"/>
<pad name="4" x="7.62" y="0" drill="1.016" diameter="1.8796" rot="R90"/>
<pad name="5" x="10.16" y="0" drill="1.016" diameter="1.8796" rot="R90"/>
<pad name="6" x="12.7" y="0" drill="1.016" diameter="1.8796" rot="R90"/>
<pad name="7" x="15.24" y="0" drill="1.016" diameter="1.8796" rot="R90"/>
<pad name="8" x="17.78" y="0" drill="1.016" diameter="1.8796" rot="R90"/>
<rectangle x1="14.986" y1="-0.254" x2="15.494" y2="0.254" layer="51"/>
<rectangle x1="12.446" y1="-0.254" x2="12.954" y2="0.254" layer="51"/>
<rectangle x1="9.906" y1="-0.254" x2="10.414" y2="0.254" layer="51"/>
<rectangle x1="7.366" y1="-0.254" x2="7.874" y2="0.254" layer="51"/>
<rectangle x1="4.826" y1="-0.254" x2="5.334" y2="0.254" layer="51"/>
<rectangle x1="2.286" y1="-0.254" x2="2.794" y2="0.254" layer="51"/>
<rectangle x1="-0.254" y1="-0.254" x2="0.254" y2="0.254" layer="51"/>
<rectangle x1="17.526" y1="-0.254" x2="18.034" y2="0.254" layer="51"/>
<text x="-1.27" y="1.397" size="0.6096" layer="25" font="vector" ratio="20">&gt;NAME</text>
<text x="-1.27" y="-2.032" size="0.6096" layer="27" font="vector" ratio="20">&gt;VALUE</text>
</package>
<package name="1X08_LOCK_NO_SILK" urn="urn:adsk.eagle:footprint:37771/1" library_version="1">
<description>&lt;h3&gt;Plated Through Hole -8 Pin Locking Footprint No Silk&lt;/h3&gt;
Holes are offset 0.005", to hold pins in place during soldering. 
&lt;p&gt;Specifications:
&lt;ul&gt;&lt;li&gt;Pin count:8&lt;/li&gt;
&lt;li&gt;Pin pitch:0.1"&lt;/li&gt;
&lt;/ul&gt;&lt;/p&gt;
&lt;p&gt;Example device(s):
&lt;ul&gt;&lt;li&gt;CONN_08&lt;/li&gt;
&lt;/ul&gt;&lt;/p&gt;</description>
<pad name="1" x="0" y="0.127" drill="1.016" diameter="1.8796" rot="R90"/>
<pad name="2" x="2.54" y="-0.127" drill="1.016" diameter="1.8796" rot="R90"/>
<pad name="3" x="5.08" y="0.127" drill="1.016" diameter="1.8796" rot="R90"/>
<pad name="4" x="7.62" y="-0.127" drill="1.016" diameter="1.8796" rot="R90"/>
<pad name="5" x="10.16" y="0.127" drill="1.016" diameter="1.8796" rot="R90"/>
<pad name="6" x="12.7" y="-0.127" drill="1.016" diameter="1.8796" rot="R90"/>
<pad name="7" x="15.24" y="0.127" drill="1.016" diameter="1.8796" rot="R90"/>
<pad name="8" x="17.78" y="-0.127" drill="1.016" diameter="1.8796" rot="R90"/>
<rectangle x1="14.986" y1="-0.254" x2="15.494" y2="0.254" layer="51"/>
<rectangle x1="12.446" y1="-0.254" x2="12.954" y2="0.254" layer="51"/>
<rectangle x1="9.906" y1="-0.254" x2="10.414" y2="0.254" layer="51"/>
<rectangle x1="7.366" y1="-0.254" x2="7.874" y2="0.254" layer="51"/>
<rectangle x1="4.826" y1="-0.254" x2="5.334" y2="0.254" layer="51"/>
<rectangle x1="2.286" y1="-0.254" x2="2.794" y2="0.254" layer="51"/>
<rectangle x1="-0.254" y1="-0.254" x2="0.254" y2="0.254" layer="51"/>
<rectangle x1="17.526" y1="-0.254" x2="18.034" y2="0.254" layer="51"/>
<text x="-1.27" y="1.397" size="0.6096" layer="25" font="vector" ratio="20">&gt;NAME</text>
<text x="-1.27" y="-2.032" size="0.6096" layer="27" font="vector" ratio="20">&gt;VALUE</text>
</package>
<package name="1X08_FEMALE_LOCK" urn="urn:adsk.eagle:footprint:37772/1" library_version="1">
<description>&lt;h3&gt;Plated Through Hole -8 Pin Locking Female Headers&lt;/h3&gt;
Holes are offset 0.005" to hold pins in place during soldering. 
&lt;p&gt;Specifications:
&lt;ul&gt;&lt;li&gt;Pin count:8&lt;/li&gt;
&lt;li&gt;Pin pitch:0.1"&lt;/li&gt;
&lt;/ul&gt;&lt;/p&gt;
&lt;p&gt;&lt;a href=”https://cdn.sparkfun.com/datasheets/Prototyping/SP-140520-XX-001.pdf”&gt;Datasheet referenced for footprint&lt;/a&gt;&lt;/p&gt;
&lt;p&gt;Example device(s):
&lt;ul&gt;&lt;li&gt;CONN_08&lt;/li&gt;
&lt;/ul&gt;&lt;/p&gt;</description>
<wire x1="-1.27" y1="1.27" x2="-1.27" y2="-1.27" width="0.2032" layer="21"/>
<wire x1="-1.27" y1="1.27" x2="19.05" y2="1.27" width="0.2032" layer="21"/>
<wire x1="19.05" y1="-1.27" x2="-1.27" y2="-1.27" width="0.2032" layer="21"/>
<wire x1="19.05" y1="1.27" x2="19.05" y2="-1.27" width="0.2032" layer="21"/>
<pad name="1" x="0" y="0.2286" drill="1.016" diameter="1.8796" rot="R90"/>
<pad name="2" x="2.54" y="-0.2286" drill="1.016" diameter="1.8796" rot="R90"/>
<pad name="3" x="5.08" y="0.2286" drill="1.016" diameter="1.8796" rot="R90"/>
<pad name="4" x="7.62" y="-0.2286" drill="1.016" diameter="1.8796" rot="R90"/>
<pad name="5" x="10.16" y="0.2286" drill="1.016" diameter="1.8796" rot="R90"/>
<pad name="6" x="12.7" y="-0.2286" drill="1.016" diameter="1.8796" rot="R90"/>
<pad name="7" x="15.24" y="0.2286" drill="1.016" diameter="1.8796" rot="R90"/>
<pad name="8" x="17.78" y="-0.2286" drill="1.016" diameter="1.8796" rot="R90"/>
<rectangle x1="-0.3175" y1="-0.1905" x2="0.3175" y2="0.1905" layer="51"/>
<rectangle x1="2.2225" y1="-0.1905" x2="2.8575" y2="0.1905" layer="51"/>
<rectangle x1="4.7625" y1="-0.1905" x2="5.3975" y2="0.1905" layer="51"/>
<rectangle x1="7.3025" y1="-0.1905" x2="7.9375" y2="0.1905" layer="51"/>
<rectangle x1="9.8425" y1="-0.1905" x2="10.4775" y2="0.1905" layer="51"/>
<rectangle x1="12.3825" y1="-0.1905" x2="13.0175" y2="0.1905" layer="51"/>
<rectangle x1="14.9225" y1="-0.1905" x2="15.5575" y2="0.1905" layer="51"/>
<rectangle x1="17.4625" y1="-0.1905" x2="18.0975" y2="0.1905" layer="51"/>
<text x="-1.27" y="1.397" size="0.6096" layer="25" font="vector" ratio="20">&gt;NAME</text>
<text x="-1.27" y="-2.032" size="0.6096" layer="27" font="vector" ratio="20">&gt;VALUE</text>
</package>
</packages>
<packages3d>
<package3d name="1X08" urn="urn:adsk.eagle:package:38138/1" type="box" library_version="1">
<description>Plated Through Hole -8 Pin
Specifications:
Pin count:8
Pin pitch:0.1"

Example device(s):
CONN_08
</description>
<packageinstances>
<packageinstance name="1X08"/>
</packageinstances>
</package3d>
<package3d name="1X08_LOCK" urn="urn:adsk.eagle:package:38137/1" type="box" library_version="1">
<description>Plated Through Hole -8 Pin Locking Footprint
Holes are offset 0.005", to hold pins in place during soldering. 
Specifications:
Pin count:8
Pin pitch:0.1"

Example device(s):
CONN_08
</description>
<packageinstances>
<packageinstance name="1X08_LOCK"/>
</packageinstances>
</package3d>
<package3d name="1X08_LOCK_LONGPADS" urn="urn:adsk.eagle:package:38140/1" type="box" library_version="1">
<description>Plated Through Hole -8 Pin Locking Footprint with Long Pads
Holes are offset 0.005", to hold pins in place during soldering. 
Specifications:
Pin count:8
Pin pitch:0.1"

Example device(s):
CONN_08
</description>
<packageinstances>
<packageinstance name="1X08_LOCK_LONGPADS"/>
</packageinstances>
</package3d>
<package3d name="1X08_LONGPADS" urn="urn:adsk.eagle:package:38142/1" type="box" library_version="1">
<description>Plated Through Hole -8 Pin Long Pads
Specifications:
Pin count:8
Pin pitch:0.1"

Example device(s):
CONN_08
</description>
<packageinstances>
<packageinstance name="1X08_LONGPADS"/>
</packageinstances>
</package3d>
<package3d name="SCREWTERMINAL-3.5MM-8" urn="urn:adsk.eagle:package:38143/1" type="box" library_version="1">
<description>Screw Terminal  3.5mm Pitch -8 Pin PTH
Specifications:
Pin count: 8
Pin pitch: 3.5mm/138mil

Datasheet referenced for footprint
Example device(s):
CONN_08
</description>
<packageinstances>
<packageinstance name="SCREWTERMINAL-3.5MM-8"/>
</packageinstances>
</package3d>
<package3d name="1X08_SMD" urn="urn:adsk.eagle:package:38144/1" type="box" library_version="1">
<description>SMD -8 Pin Vertical Female
Specifications:
Pin count:8
Pin pitch:0.1"

Datasheet referenced for footprint
Example device(s):
CONN_08
</description>
<packageinstances>
<packageinstance name="1X08_SMD"/>
</packageinstances>
</package3d>
<package3d name="1X08_SMD_ALT" urn="urn:adsk.eagle:package:38148/1" type="box" library_version="1">
<description>SMD -8 Pin Vertical Female
Alternate pin configuration
Specifications:
Pin count:8
Pin pitch:0.1"

Datasheet referenced for footprint
Example device(s):
CONN_08
</description>
<packageinstances>
<packageinstance name="1X08_SMD_ALT"/>
</packageinstances>
</package3d>
<package3d name="1X08_SMD_COMBINED" urn="urn:adsk.eagle:package:38146/1" type="box" library_version="1">
<description>SMD -8 Pin Vertical Female
Combined footprint configuration
Specifications:
Pin count:8
Pin pitch:0.1"

Datasheet referenced for footprint
Example device(s):
CONN_08
</description>
<packageinstances>
<packageinstance name="1X08_SMD_COMBINED"/>
</packageinstances>
</package3d>
<package3d name="BM08B-SRSS-TB" urn="urn:adsk.eagle:package:38145/1" type="box" library_version="1">
<description>JST Vertical Crimp Connect
Specifications:
Pin count: 8
Pin pitch:1mm

Datasheet referenced for footprint
Example device(s):
CONN_08
</description>
<packageinstances>
<packageinstance name="BM08B-SRSS-TB"/>
</packageinstances>
</package3d>
<package3d name="1X08_SMD_MALE" urn="urn:adsk.eagle:package:38150/1" type="box" library_version="1">
<description>SMD -8 Pin Vertical Male
Specifications:
Pin count:8
Pin pitch:0.1"

Datasheet referenced for footprint
Example device(s):
CONN_08
</description>
<packageinstances>
<packageinstance name="1X08_SMD_MALE"/>
</packageinstances>
</package3d>
<package3d name="1X08_NO_SILK" urn="urn:adsk.eagle:package:38149/1" type="box" library_version="1">
<description>Plated Through Hole -8 Pin No Silk
Specifications:
Pin count:8
Pin pitch:0.1"

Example device(s):
CONN_08
</description>
<packageinstances>
<packageinstance name="1X08_NO_SILK"/>
</packageinstances>
</package3d>
<package3d name="1X08_LOCK_NO_SILK" urn="urn:adsk.eagle:package:38147/1" type="box" library_version="1">
<description>Plated Through Hole -8 Pin Locking Footprint No Silk
Holes are offset 0.005", to hold pins in place during soldering. 
Specifications:
Pin count:8
Pin pitch:0.1"

Example device(s):
CONN_08
</description>
<packageinstances>
<packageinstance name="1X08_LOCK_NO_SILK"/>
</packageinstances>
</package3d>
<package3d name="1X08_FEMALE_LOCK" urn="urn:adsk.eagle:package:38151/1" type="box" library_version="1">
<description>Plated Through Hole -8 Pin Locking Female Headers
Holes are offset 0.005" to hold pins in place during soldering. 
Specifications:
Pin count:8
Pin pitch:0.1"

Datasheet referenced for footprint
Example device(s):
CONN_08
</description>
<packageinstances>
<packageinstance name="1X08_FEMALE_LOCK"/>
</packageinstances>
</package3d>
</packages3d>
<symbols>
<symbol name="CONN_08" urn="urn:adsk.eagle:symbol:37759/1" library_version="1">
<description>&lt;h3&gt; 8 Pin Connection&lt;/h3&gt;</description>
<wire x1="1.27" y1="-10.16" x2="-5.08" y2="-10.16" width="0.4064" layer="94"/>
<wire x1="-1.27" y1="-2.54" x2="0" y2="-2.54" width="0.6096" layer="94"/>
<wire x1="-1.27" y1="-5.08" x2="0" y2="-5.08" width="0.6096" layer="94"/>
<wire x1="-1.27" y1="-7.62" x2="0" y2="-7.62" width="0.6096" layer="94"/>
<wire x1="-5.08" y1="12.7" x2="-5.08" y2="-10.16" width="0.4064" layer="94"/>
<wire x1="1.27" y1="-10.16" x2="1.27" y2="12.7" width="0.4064" layer="94"/>
<wire x1="-5.08" y1="12.7" x2="1.27" y2="12.7" width="0.4064" layer="94"/>
<wire x1="-1.27" y1="2.54" x2="0" y2="2.54" width="0.6096" layer="94"/>
<wire x1="-1.27" y1="0" x2="0" y2="0" width="0.6096" layer="94"/>
<wire x1="-1.27" y1="5.08" x2="0" y2="5.08" width="0.6096" layer="94"/>
<wire x1="-1.27" y1="7.62" x2="0" y2="7.62" width="0.6096" layer="94"/>
<wire x1="-1.27" y1="10.16" x2="0" y2="10.16" width="0.6096" layer="94"/>
<text x="-5.08" y="-12.446" size="1.778" layer="96" font="vector">&gt;VALUE</text>
<text x="-5.08" y="13.208" size="1.778" layer="95" font="vector">&gt;NAME</text>
<pin name="1" x="5.08" y="-7.62" visible="pad" length="middle" direction="pas" swaplevel="1" rot="R180"/>
<pin name="2" x="5.08" y="-5.08" visible="pad" length="middle" direction="pas" swaplevel="1" rot="R180"/>
<pin name="3" x="5.08" y="-2.54" visible="pad" length="middle" direction="pas" swaplevel="1" rot="R180"/>
<pin name="4" x="5.08" y="0" visible="pad" length="middle" direction="pas" swaplevel="1" rot="R180"/>
<pin name="5" x="5.08" y="2.54" visible="pad" length="middle" direction="pas" swaplevel="1" rot="R180"/>
<pin name="6" x="5.08" y="5.08" visible="pad" length="middle" direction="pas" swaplevel="1" rot="R180"/>
<pin name="7" x="5.08" y="7.62" visible="pad" length="middle" direction="pas" swaplevel="1" rot="R180"/>
<pin name="8" x="5.08" y="10.16" visible="pad" length="middle" direction="pas" swaplevel="1" rot="R180"/>
</symbol>
</symbols>
<devicesets>
<deviceset name="CONN_08" urn="urn:adsk.eagle:component:38333/1" prefix="J" uservalue="yes" library_version="1">
<description>&lt;h3&gt;Multi connection point. Often used as Generic Header-pin footprint for 0.1 inch spaced/style header connections&lt;/h3&gt;

&lt;p&gt;&lt;/p&gt;
&lt;b&gt;On any of the 0.1 inch spaced packages, you can populate with these:&lt;/b&gt;
&lt;ul&gt;
&lt;li&gt;&lt;a href="https://www.sparkfun.com/products/116"&gt; Break Away Headers - Straight&lt;/a&gt; (PRT-00116)&lt;/li&gt;
&lt;li&gt;&lt;a href="https://www.sparkfun.com/products/553"&gt; Break Away Male Headers - Right Angle&lt;/a&gt; (PRT-00553)&lt;/li&gt;
&lt;li&gt;&lt;a href="https://www.sparkfun.com/products/115"&gt; Female Headers&lt;/a&gt; (PRT-00115)&lt;/li&gt;
&lt;li&gt;&lt;a href="https://www.sparkfun.com/products/117"&gt; Break Away Headers - Machine Pin&lt;/a&gt; (PRT-00117)&lt;/li&gt;
&lt;li&gt;&lt;a href="https://www.sparkfun.com/products/743"&gt; Break Away Female Headers - Swiss Machine Pin&lt;/a&gt; (PRT-00743)&lt;/li&gt;
&lt;li&gt;&lt;a href="https://www.sparkfun.com/products/9279"&gt; Arduino Stackable Header - 8 Pin&lt;/a&gt; (PRT-09279)&lt;/li&gt;
&lt;/ul&gt;

&lt;p&gt;&lt;/p&gt;
&lt;b&gt; For SCREWTERMINALS and SPRING TERMINALS visit here:&lt;/b&gt;
&lt;ul&gt;
&lt;li&gt;&lt;a href="https://www.sparkfun.com/search/results?term=Screw+Terminals"&gt; Screw Terimnals on SparkFun.com&lt;/a&gt; (5mm/3.5mm/2.54mm spacing)&lt;/li&gt;
&lt;/ul&gt;

&lt;p&gt;&lt;/p&gt;
&lt;b&gt;This device is also useful as a general connection point to wire up your design to another part of your project. Our various solder wires solder well into these plated through hole pads.&lt;/b&gt;
&lt;ul&gt;
&lt;li&gt;&lt;a href="https://www.sparkfun.com/products/11375"&gt; Hook-Up Wire - Assortment (Stranded, 22 AWG)&lt;/a&gt; (PRT-11375)&lt;/li&gt;
&lt;li&gt;&lt;a href="https://www.sparkfun.com/products/11367"&gt; Hook-Up Wire - Assortment (Solid Core, 22 AWG)&lt;/a&gt; (PRT-11367)&lt;/li&gt;
&lt;li&gt;&lt;a href="https://www.sparkfun.com/categories/141"&gt; View the entire wire category on our website here&lt;/a&gt;&lt;/li&gt;
&lt;p&gt;&lt;/p&gt;
&lt;/ul&gt;

&lt;p&gt;&lt;/p&gt;
&lt;b&gt;Special notes:&lt;/b&gt;
&lt;p&gt; &lt;/p&gt; Molex polarized connector foot print use with SKU : PRT-08231 with associated crimp pins and housings. 1MM SMD Version SKU: PRT-10208
&lt;p&gt;&lt;/p&gt;
NOTES ON THE VARIANTS LOCK and LOCK_LONGPADS...
This footprint was designed to help hold the alignment of a through-hole component (i.e.  6-pin header) while soldering it into place. You may notice that each hole has been shifted either up or down by 0.005 of an inch from it's more standard position (which is a perfectly straight line).  This slight alteration caused the pins (the squares in the middle) to touch the edges of the holes.  Because they are alternating, it causes a "brace" to hold the component in place.  0.005 has proven to be the perfect amount of "off-center" position when using our standard breakaway headers. Although looks a little odd when you look at the bare footprint, once you have a header in there, the alteration is very hard to notice.  Also,if you push a header all the way into place, it is covered up entirely on the bottom side.</description>
<gates>
<gate name="G$1" symbol="CONN_08" x="-2.54" y="0"/>
</gates>
<devices>
<device name="&quot;" package="1X08">
<connects>
<connect gate="G$1" pin="1" pad="1"/>
<connect gate="G$1" pin="2" pad="2"/>
<connect gate="G$1" pin="3" pad="3"/>
<connect gate="G$1" pin="4" pad="4"/>
<connect gate="G$1" pin="5" pad="5"/>
<connect gate="G$1" pin="6" pad="6"/>
<connect gate="G$1" pin="7" pad="7"/>
<connect gate="G$1" pin="8" pad="8"/>
</connects>
<package3dinstances>
<package3dinstance package3d_urn="urn:adsk.eagle:package:38138/1"/>
</package3dinstances>
<technologies>
<technology name="">
<attribute name="PROD_ID" value="CONN-08438"/>
</technology>
</technologies>
</device>
<device name="LOCK" package="1X08_LOCK">
<connects>
<connect gate="G$1" pin="1" pad="1"/>
<connect gate="G$1" pin="2" pad="2"/>
<connect gate="G$1" pin="3" pad="3"/>
<connect gate="G$1" pin="4" pad="4"/>
<connect gate="G$1" pin="5" pad="5"/>
<connect gate="G$1" pin="6" pad="6"/>
<connect gate="G$1" pin="7" pad="7"/>
<connect gate="G$1" pin="8" pad="8"/>
</connects>
<package3dinstances>
<package3dinstance package3d_urn="urn:adsk.eagle:package:38137/1"/>
</package3dinstances>
<technologies>
<technology name=""/>
</technologies>
</device>
<device name="LOCK_LONGPADS" package="1X08_LOCK_LONGPADS">
<connects>
<connect gate="G$1" pin="1" pad="1"/>
<connect gate="G$1" pin="2" pad="2"/>
<connect gate="G$1" pin="3" pad="3"/>
<connect gate="G$1" pin="4" pad="4"/>
<connect gate="G$1" pin="5" pad="5"/>
<connect gate="G$1" pin="6" pad="6"/>
<connect gate="G$1" pin="7" pad="7"/>
<connect gate="G$1" pin="8" pad="8"/>
</connects>
<package3dinstances>
<package3dinstance package3d_urn="urn:adsk.eagle:package:38140/1"/>
</package3dinstances>
<technologies>
<technology name=""/>
</technologies>
</device>
<device name="LONGPADS" package="1X08_LONGPADS">
<connects>
<connect gate="G$1" pin="1" pad="1"/>
<connect gate="G$1" pin="2" pad="2"/>
<connect gate="G$1" pin="3" pad="3"/>
<connect gate="G$1" pin="4" pad="4"/>
<connect gate="G$1" pin="5" pad="5"/>
<connect gate="G$1" pin="6" pad="6"/>
<connect gate="G$1" pin="7" pad="7"/>
<connect gate="G$1" pin="8" pad="8"/>
</connects>
<package3dinstances>
<package3dinstance package3d_urn="urn:adsk.eagle:package:38142/1"/>
</package3dinstances>
<technologies>
<technology name=""/>
</technologies>
</device>
<device name="3.5MM-8" package="SCREWTERMINAL-3.5MM-8">
<connects>
<connect gate="G$1" pin="1" pad="1"/>
<connect gate="G$1" pin="2" pad="2"/>
<connect gate="G$1" pin="3" pad="3"/>
<connect gate="G$1" pin="4" pad="4"/>
<connect gate="G$1" pin="5" pad="5"/>
<connect gate="G$1" pin="6" pad="6"/>
<connect gate="G$1" pin="7" pad="7"/>
<connect gate="G$1" pin="8" pad="8"/>
</connects>
<package3dinstances>
<package3dinstance package3d_urn="urn:adsk.eagle:package:38143/1"/>
</package3dinstances>
<technologies>
<technology name=""/>
</technologies>
</device>
<device name="SMD-STRAIGHT-FEMALE" package="1X08_SMD">
<connects>
<connect gate="G$1" pin="1" pad="1"/>
<connect gate="G$1" pin="2" pad="2"/>
<connect gate="G$1" pin="3" pad="3"/>
<connect gate="G$1" pin="4" pad="4"/>
<connect gate="G$1" pin="5" pad="5"/>
<connect gate="G$1" pin="6" pad="6"/>
<connect gate="G$1" pin="7" pad="7"/>
<connect gate="G$1" pin="8" pad="8"/>
</connects>
<package3dinstances>
<package3dinstance package3d_urn="urn:adsk.eagle:package:38144/1"/>
</package3dinstances>
<technologies>
<technology name="">
<attribute name="PROD_ID" value="CONN-10204"/>
<attribute name="SF_ID" value="PRT-11543" constant="no"/>
</technology>
</technologies>
</device>
<device name="SMD-STRAIGHT-ALT-FEMALE" package="1X08_SMD_ALT">
<connects>
<connect gate="G$1" pin="1" pad="1"/>
<connect gate="G$1" pin="2" pad="2"/>
<connect gate="G$1" pin="3" pad="3"/>
<connect gate="G$1" pin="4" pad="4"/>
<connect gate="G$1" pin="5" pad="5"/>
<connect gate="G$1" pin="6" pad="6"/>
<connect gate="G$1" pin="7" pad="7"/>
<connect gate="G$1" pin="8" pad="8"/>
</connects>
<package3dinstances>
<package3dinstance package3d_urn="urn:adsk.eagle:package:38148/1"/>
</package3dinstances>
<technologies>
<technology name="">
<attribute name="PROD_ID" value="CONN-10204"/>
<attribute name="SF_ID" value="PRT-11543" constant="no"/>
</technology>
</technologies>
</device>
<device name="SMD-COMBO-FEMALE" package="1X08_SMD_COMBINED">
<connects>
<connect gate="G$1" pin="1" pad="1"/>
<connect gate="G$1" pin="2" pad="2"/>
<connect gate="G$1" pin="3" pad="3"/>
<connect gate="G$1" pin="4" pad="4"/>
<connect gate="G$1" pin="5" pad="5"/>
<connect gate="G$1" pin="6" pad="6"/>
<connect gate="G$1" pin="7" pad="7"/>
<connect gate="G$1" pin="8" pad="8"/>
</connects>
<package3dinstances>
<package3dinstance package3d_urn="urn:adsk.eagle:package:38146/1"/>
</package3dinstances>
<technologies>
<technology name="">
<attribute name="PROD_ID" value="CONN-10204"/>
<attribute name="SF_ID" value="PRT-11543" constant="no"/>
</technology>
</technologies>
</device>
<device name="BM08B-SRSS-TB" package="BM08B-SRSS-TB">
<connects>
<connect gate="G$1" pin="1" pad="1"/>
<connect gate="G$1" pin="2" pad="2"/>
<connect gate="G$1" pin="3" pad="3"/>
<connect gate="G$1" pin="4" pad="4"/>
<connect gate="G$1" pin="5" pad="5"/>
<connect gate="G$1" pin="6" pad="6"/>
<connect gate="G$1" pin="7" pad="7"/>
<connect gate="G$1" pin="8" pad="8"/>
</connects>
<package3dinstances>
<package3dinstance package3d_urn="urn:adsk.eagle:package:38145/1"/>
</package3dinstances>
<technologies>
<technology name="">
<attribute name="PROD_ID" value="CONN-10556" constant="no"/>
</technology>
</technologies>
</device>
<device name="SMD-MALE" package="1X08_SMD_MALE">
<connects>
<connect gate="G$1" pin="1" pad="1"/>
<connect gate="G$1" pin="2" pad="2"/>
<connect gate="G$1" pin="3" pad="3"/>
<connect gate="G$1" pin="4" pad="4"/>
<connect gate="G$1" pin="5" pad="5"/>
<connect gate="G$1" pin="6" pad="6"/>
<connect gate="G$1" pin="7" pad="7"/>
<connect gate="G$1" pin="8" pad="8"/>
</connects>
<package3dinstances>
<package3dinstance package3d_urn="urn:adsk.eagle:package:38150/1"/>
</package3dinstances>
<technologies>
<technology name="">
<attribute name="PROD_ID" value="CONN-11292"/>
<attribute name="SF_ID" value="PRT-11541" constant="no"/>
</technology>
</technologies>
</device>
<device name="NO_SILK_FEMALE_PTH" package="1X08_NO_SILK">
<connects>
<connect gate="G$1" pin="1" pad="1"/>
<connect gate="G$1" pin="2" pad="2"/>
<connect gate="G$1" pin="3" pad="3"/>
<connect gate="G$1" pin="4" pad="4"/>
<connect gate="G$1" pin="5" pad="5"/>
<connect gate="G$1" pin="6" pad="6"/>
<connect gate="G$1" pin="7" pad="7"/>
<connect gate="G$1" pin="8" pad="8"/>
</connects>
<package3dinstances>
<package3dinstance package3d_urn="urn:adsk.eagle:package:38149/1"/>
</package3dinstances>
<technologies>
<technology name="">
<attribute name="PROD_ID" value="CONN-08438"/>
</technology>
</technologies>
</device>
<device name="LOCK_NO_SILK" package="1X08_LOCK_NO_SILK">
<connects>
<connect gate="G$1" pin="1" pad="1"/>
<connect gate="G$1" pin="2" pad="2"/>
<connect gate="G$1" pin="3" pad="3"/>
<connect gate="G$1" pin="4" pad="4"/>
<connect gate="G$1" pin="5" pad="5"/>
<connect gate="G$1" pin="6" pad="6"/>
<connect gate="G$1" pin="7" pad="7"/>
<connect gate="G$1" pin="8" pad="8"/>
</connects>
<package3dinstances>
<package3dinstance package3d_urn="urn:adsk.eagle:package:38147/1"/>
</package3dinstances>
<technologies>
<technology name=""/>
</technologies>
</device>
<device name="FEMALE_LOCK" package="1X08_FEMALE_LOCK">
<connects>
<connect gate="G$1" pin="1" pad="1"/>
<connect gate="G$1" pin="2" pad="2"/>
<connect gate="G$1" pin="3" pad="3"/>
<connect gate="G$1" pin="4" pad="4"/>
<connect gate="G$1" pin="5" pad="5"/>
<connect gate="G$1" pin="6" pad="6"/>
<connect gate="G$1" pin="7" pad="7"/>
<connect gate="G$1" pin="8" pad="8"/>
</connects>
<package3dinstances>
<package3dinstance package3d_urn="urn:adsk.eagle:package:38151/1"/>
</package3dinstances>
<technologies>
<technology name="">
<attribute name="PROD_ID" value="CONN-09233" constant="no"/>
<attribute name="SF_ID" value="PRT-09279" constant="no"/>
</technology>
</technologies>
</device>
</devices>
</deviceset>
</devicesets>
</library>
<library name="M24M02-DRMN6TP">
<packages>
<package name="SOIC8">
<description>SOIC8 package type.</description>
<wire x1="0" y1="0" x2="5.08" y2="0" width="0.127" layer="21"/>
<wire x1="5.08" y1="0" x2="5.08" y2="3.81" width="0.127" layer="21"/>
<wire x1="5.08" y1="3.81" x2="0" y2="3.81" width="0.127" layer="21"/>
<wire x1="0" y1="3.81" x2="0" y2="0" width="0.127" layer="21"/>
<circle x="0.635" y="0.635" radius="0.3175" width="0.127" layer="21"/>
<smd name="PIN8" x="0.635" y="4.445" dx="1.27" dy="0.635" layer="1" rot="R90"/>
<smd name="PIN7" x="1.905" y="4.445" dx="1.27" dy="0.635" layer="1" rot="R90"/>
<smd name="PIN6" x="3.175" y="4.445" dx="1.27" dy="0.635" layer="1" rot="R90"/>
<smd name="PIN5" x="4.445" y="4.445" dx="1.27" dy="0.635" layer="1" rot="R90"/>
<smd name="PIN1" x="0.635" y="-0.635" dx="1.27" dy="0.635" layer="1" rot="R90"/>
<smd name="PIN2" x="1.905" y="-0.635" dx="1.27" dy="0.635" layer="1" rot="R90"/>
<smd name="PIN3" x="3.175" y="-0.635" dx="1.27" dy="0.635" layer="1" rot="R90"/>
<smd name="PIN4" x="4.445" y="-0.635" dx="1.27" dy="0.635" layer="1" rot="R90"/>
</package>
</packages>
<symbols>
<symbol name="M24M02-DRMN6TP">
<wire x1="0" y1="0" x2="15.24" y2="0" width="0.254" layer="94"/>
<wire x1="15.24" y1="0" x2="15.24" y2="20.32" width="0.254" layer="94"/>
<wire x1="15.24" y1="20.32" x2="0" y2="20.32" width="0.254" layer="94"/>
<wire x1="0" y1="20.32" x2="0" y2="0" width="0.254" layer="94"/>
<pin name="NA1" x="-5.08" y="17.78" length="middle"/>
<pin name="NA2" x="-5.08" y="12.7" length="middle"/>
<pin name="E2" x="-5.08" y="7.62" length="middle"/>
<pin name="VSS" x="-5.08" y="2.54" length="middle"/>
<pin name="SDA" x="20.32" y="2.54" length="middle" rot="R180"/>
<pin name="SCL" x="20.32" y="7.62" length="middle" rot="R180"/>
<pin name="WC" x="20.32" y="12.7" length="middle" rot="R180"/>
<pin name="VCC" x="20.32" y="17.78" length="middle" rot="R180"/>
</symbol>
</symbols>
<devicesets>
<deviceset name="M24M02-DRMN6TP">
<gates>
<gate name="G$1" symbol="M24M02-DRMN6TP" x="0" y="0"/>
</gates>
<devices>
<device name="" package="SOIC8">
<connects>
<connect gate="G$1" pin="E2" pad="PIN3"/>
<connect gate="G$1" pin="NA1" pad="PIN1"/>
<connect gate="G$1" pin="NA2" pad="PIN2"/>
<connect gate="G$1" pin="SCL" pad="PIN6"/>
<connect gate="G$1" pin="SDA" pad="PIN5"/>
<connect gate="G$1" pin="VCC" pad="PIN8"/>
<connect gate="G$1" pin="VSS" pad="PIN4"/>
<connect gate="G$1" pin="WC" pad="PIN7"/>
</connects>
<technologies>
<technology name="">
<attribute name="AVAILABILITY" value="Unavailable"/>
<attribute name="DESCRIPTION" value=" M24M02-DR Series 2 Mb _256 K x 8_ 5.5 V Serial I²C bus EEPROM - SOIC-8 "/>
<attribute name="MF" value="STMicroelectronics"/>
<attribute name="MP" value="M24M02-DRMN6TP"/>
<attribute name="PACKAGE" value="SO-8 STMicroelectronics"/>
<attribute name="PRICE" value="None"/>
</technology>
</technologies>
</device>
</devices>
</deviceset>
</devicesets>
</library>
</libraries>
<attributes>
</attributes>
<variantdefs>
</variantdefs>
<classes>
<class number="0" name="default" width="0" drill="0">
</class>
</classes>
<parts>
<part name="STACK" library="SparkFun-Connectors" library_urn="urn:adsk.eagle:library:513" deviceset="CONN_08" device="&quot;" package3d_urn="urn:adsk.eagle:package:38138/1"/>
<part name="U$1" library="M24M02-DRMN6TP" deviceset="M24M02-DRMN6TP" device=""/>
<part name="U$2" library="M24M02-DRMN6TP" deviceset="M24M02-DRMN6TP" device=""/>
</parts>
<sheets>
<sheet>
<plain>
</plain>
<instances>
<instance part="STACK" gate="G$1" x="22.86" y="71.12" rot="MR180"/>
<instance part="U$1" gate="G$1" x="33.02" y="25.4"/>
<instance part="U$2" gate="G$1" x="-25.4" y="25.4"/>
</instances>
<busses>
</busses>
<nets>
<net name="GROUND" class="0">
<segment>
<pinref part="STACK" gate="G$1" pin="8"/>
<wire x1="27.94" y1="60.96" x2="33.02" y2="60.96" width="0.1524" layer="91"/>
<label x="35.56" y="60.96" size="1.778" layer="95"/>
</segment>
<segment>
<pinref part="STACK" gate="G$1" pin="2"/>
<wire x1="27.94" y1="76.2" x2="33.02" y2="76.2" width="0.1524" layer="91" style="longdash"/>
<label x="35.56" y="76.2" size="1.778" layer="95"/>
</segment>
<segment>
<pinref part="U$1" gate="G$1" pin="E2"/>
<wire x1="27.94" y1="33.02" x2="17.78" y2="33.02" width="0.1524" layer="91"/>
<label x="17.78" y="33.02" size="1.778" layer="95"/>
<pinref part="U$1" gate="G$1" pin="VSS"/>
<wire x1="27.94" y1="27.94" x2="17.78" y2="27.94" width="0.1524" layer="91"/>
<wire x1="17.78" y1="33.02" x2="17.78" y2="27.94" width="0.1524" layer="91"/>
</segment>
<segment>
<pinref part="U$1" gate="G$1" pin="WC"/>
<wire x1="53.34" y1="38.1" x2="63.5" y2="38.1" width="0.1524" layer="91"/>
<label x="55.88" y="38.1" size="1.778" layer="95"/>
</segment>
<segment>
<pinref part="U$2" gate="G$1" pin="VSS"/>
<wire x1="-30.48" y1="27.94" x2="-40.64" y2="27.94" width="0.1524" layer="91"/>
<label x="-40.64" y="27.94" size="1.778" layer="95"/>
</segment>
<segment>
<pinref part="U$2" gate="G$1" pin="WC"/>
<wire x1="-5.08" y1="38.1" x2="5.08" y2="38.1" width="0.1524" layer="91"/>
<label x="-2.54" y="38.1" size="1.778" layer="95"/>
</segment>
</net>
<net name="SDA" class="0">
<segment>
<pinref part="STACK" gate="G$1" pin="4"/>
<wire x1="27.94" y1="71.12" x2="33.02" y2="71.12" width="0.1524" layer="91" style="longdash"/>
<label x="35.56" y="71.12" size="1.778" layer="95"/>
</segment>
<segment>
<pinref part="U$1" gate="G$1" pin="SDA"/>
<wire x1="53.34" y1="27.94" x2="63.5" y2="27.94" width="0.1524" layer="91"/>
<label x="55.88" y="27.94" size="1.778" layer="95"/>
</segment>
<segment>
<pinref part="U$2" gate="G$1" pin="SDA"/>
<wire x1="-5.08" y1="27.94" x2="5.08" y2="27.94" width="0.1524" layer="91"/>
<label x="-2.54" y="27.94" size="1.778" layer="95"/>
</segment>
</net>
<net name="SCL" class="0">
<segment>
<pinref part="STACK" gate="G$1" pin="3"/>
<wire x1="27.94" y1="73.66" x2="33.02" y2="73.66" width="0.1524" layer="91" style="longdash"/>
<label x="35.56" y="73.66" size="1.778" layer="95"/>
</segment>
<segment>
<pinref part="U$1" gate="G$1" pin="SCL"/>
<wire x1="53.34" y1="33.02" x2="63.5" y2="33.02" width="0.1524" layer="91"/>
<label x="55.88" y="33.02" size="1.778" layer="95"/>
</segment>
<segment>
<pinref part="U$2" gate="G$1" pin="SCL"/>
<wire x1="-5.08" y1="33.02" x2="5.08" y2="33.02" width="0.1524" layer="91"/>
<label x="-2.54" y="33.02" size="1.778" layer="95"/>
</segment>
</net>
<net name="VREG" class="0">
<segment>
<pinref part="STACK" gate="G$1" pin="7"/>
<wire x1="27.94" y1="63.5" x2="33.02" y2="63.5" width="0.1524" layer="91"/>
<label x="35.56" y="63.5" size="1.778" layer="95"/>
</segment>
<segment>
<pinref part="STACK" gate="G$1" pin="1"/>
<wire x1="27.94" y1="78.74" x2="33.02" y2="78.74" width="0.1524" layer="91" style="longdash"/>
<label x="35.56" y="78.74" size="1.778" layer="95"/>
</segment>
<segment>
<pinref part="U$1" gate="G$1" pin="VCC"/>
<wire x1="53.34" y1="43.18" x2="63.5" y2="43.18" width="0.1524" layer="91"/>
<label x="55.88" y="43.18" size="1.778" layer="95"/>
</segment>
<segment>
<pinref part="U$2" gate="G$1" pin="VCC"/>
<wire x1="-5.08" y1="43.18" x2="5.08" y2="43.18" width="0.1524" layer="91"/>
<label x="-2.54" y="43.18" size="1.778" layer="95"/>
</segment>
<segment>
<pinref part="U$2" gate="G$1" pin="E2"/>
<wire x1="-30.48" y1="33.02" x2="-40.64" y2="33.02" width="0.1524" layer="91"/>
<label x="-40.64" y="33.02" size="1.778" layer="95"/>
</segment>
</net>
<net name="VBATT" class="0">
<segment>
<pinref part="STACK" gate="G$1" pin="6"/>
<wire x1="27.94" y1="66.04" x2="33.02" y2="66.04" width="0.1524" layer="91"/>
<label x="35.56" y="66.04" size="1.778" layer="95"/>
</segment>
</net>
<net name="VEXT" class="0">
<segment>
<pinref part="STACK" gate="G$1" pin="5"/>
<wire x1="27.94" y1="68.58" x2="33.02" y2="68.58" width="0.1524" layer="91"/>
<label x="35.56" y="68.58" size="1.778" layer="95"/>
</segment>
</net>
<net name="N$1" class="0">
<segment>
<pinref part="U$1" gate="G$1" pin="NA1"/>
<wire x1="27.94" y1="43.18" x2="17.78" y2="43.18" width="0.1524" layer="91"/>
</segment>
</net>
<net name="N$3" class="0">
<segment>
<pinref part="U$1" gate="G$1" pin="NA2"/>
<wire x1="27.94" y1="38.1" x2="17.78" y2="38.1" width="0.1524" layer="91"/>
</segment>
</net>
<net name="N$4" class="0">
<segment>
<pinref part="U$2" gate="G$1" pin="NA1"/>
<wire x1="-30.48" y1="43.18" x2="-40.64" y2="43.18" width="0.1524" layer="91"/>
</segment>
</net>
<net name="N$5" class="0">
<segment>
<pinref part="U$2" gate="G$1" pin="NA2"/>
<wire x1="-30.48" y1="38.1" x2="-40.64" y2="38.1" width="0.1524" layer="91"/>
</segment>
</net>
</nets>
</sheet>
</sheets>
</schematic>
</drawing>
<compatibility>
<note version="8.2" severity="warning">
Since Version 8.2, EAGLE supports online libraries. The ids
of those online libraries will not be understood (or retained)
with this version.
</note>
<note version="8.3" severity="warning">
Since Version 8.3, EAGLE supports URNs for individual library
assets (packages, symbols, and devices). The URNs of those assets
will not be understood (or retained) with this version.
</note>
<note version="8.3" severity="warning">
Since Version 8.3, EAGLE supports the association of 3D packages
with devices in libraries, schematics, and board files. Those 3D
packages will not be understood (or retained) with this version.
</note>
</compatibility>
</eagle>
